newmtl Box006SG
illum 4
Kd 0.05 0.01 0.00
Ka 0.00 0.00 0.00
Tf 1.00 1.00 1.00
Ni 1.00
Ks 0.56 0.56 0.56
Ns 673.59
newmtl Cylinder014SG
illum 4
Kd 0.59 0.59 0.59
Ka 0.59 0.59 0.59
Tf 1.00 1.00 1.00
Ni 1.00
Ks 0.00 0.00 0.00
Ns 0.00
newmtl Plane006SG
illum 4
Kd 0.34 0.41 0.37
Ka 0.00 0.00 0.00
Tf 0.00 0.00 0.00
Ni 1.00
Ks 0.26 0.26 0.26
Ns 1022.00
newmtl Sphere005SG
illum 4
Kd 0.49 0.45 0.52
Ka 0.00 0.00 0.00
Tf 0.07 0.07 0.07
Ni 1.00
Ks 0.96 0.96 0.96
Ns 53.72
newmtl Sphere119SG
illum 4
Kd 0.01 0.01 0.01
Ka 0.00 0.00 0.00
Tf 1.00 1.00 1.00
Ni 1.00
Ks 0.23 0.23 0.23
Ns 145.03