# This file uses centimeters as units for non-parametric coordinates.

mtllib eyeBall.mtl
g default
v 0.002620 1.820689 0.000000
v -0.560132 1.732388 0.000000
v -1.068054 1.474508 0.000000
v -1.471429 1.072293 0.000000
v -1.730768 0.565115 0.000000
v -1.820688 0.002620 0.000000
v -1.732387 -0.560131 0.000000
v -1.474508 -1.068054 0.000000
v -1.072293 -1.471428 0.000000
v -0.565115 -1.730767 0.000000
v -0.002620 -1.820688 0.000000
v 0.560131 -1.732387 0.000000
v 1.068053 -1.474506 0.000000
v 1.471427 -1.072293 0.000000
v 1.730767 -0.565115 0.000000
v 1.820687 -0.002620 0.000000
v 1.732386 0.560132 0.000000
v 1.474506 1.068053 0.000000
v 1.072293 1.471427 0.000000
v 0.565115 1.730767 0.000000
v 0.002587 1.798273 0.284818
v -0.553236 1.711059 0.284818
v -1.054905 1.456355 0.284818
v -1.453313 1.059091 0.284818
v -1.709459 0.558158 0.284818
v -1.798273 0.002588 0.284818
v -1.711059 -0.553235 0.284818
v -1.456354 -1.054904 0.284818
v -1.059091 -1.453312 0.284818
v -0.558158 -1.709459 0.284818
v -0.002588 -1.798272 0.284818
v 0.553236 -1.711058 0.284818
v 1.054904 -1.456354 0.284818
v 1.453312 -1.059091 0.284818
v 1.709458 -0.558157 0.284818
v 1.798272 -0.002588 0.284818
v 1.711058 0.553236 0.284818
v 1.456353 1.054904 0.284818
v 1.059091 1.453312 0.284818
v 0.558158 1.709459 0.284818
v 0.002491 1.731578 0.562624
v -0.532717 1.647599 0.562624
v -1.015780 1.402340 0.562624
v -1.399411 1.019811 0.562624
v -1.646059 0.537457 0.562624
v -1.731578 0.002492 0.562624
v -1.647598 -0.532717 0.562624
v -1.402340 -1.015779 0.562624
v -1.019811 -1.399410 0.562624
v -0.537457 -1.646058 0.562624
v -0.002492 -1.731577 0.562624
v 0.532717 -1.647597 0.562624
v 1.015779 -1.402339 0.562624
v 1.399410 -1.019811 0.562624
v 1.646057 -0.537456 0.562624
v 1.731577 -0.002492 0.562624
v 1.647597 0.532717 0.562624
v 1.402339 1.015780 0.562624
v 1.019811 1.399410 0.562624
v 0.537456 1.646057 0.562624
v 0.002334 1.622245 0.826576
v -0.499081 1.543569 0.826576
v -0.951643 1.313796 0.826576
v -1.311051 0.955420 0.826576
v -1.542125 0.503521 0.826576
v -1.622245 0.002334 0.826576
v -1.543568 -0.499081 0.826576
v -1.313796 -0.951643 0.826576
v -0.955420 -1.311051 0.826576
v -0.503521 -1.542125 0.826576
v -0.002335 -1.622245 0.826576
v 0.499081 -1.543568 0.826576
v 0.951642 -1.313795 0.826576
v 1.311051 -0.955419 0.826576
v 1.542125 -0.503521 0.826576
v 1.622244 -0.002334 0.826576
v 1.543567 0.499081 0.826576
v 1.313795 0.951643 0.826576
v 0.955419 1.311052 0.826576
v 0.503521 1.542125 0.826576
v 0.002119 1.472969 1.070174
v -0.453156 1.401531 1.070174
v -0.864074 1.192902 1.070174
v -1.190410 0.867504 1.070174
v -1.400220 0.457188 1.070174
v -1.472968 0.002120 1.070174
v -1.401530 -0.453156 1.070174
v -1.192902 -0.864074 1.070174
v -0.867503 -1.190409 1.070174
v -0.457188 -1.400220 1.070174
v -0.002120 -1.472967 1.070174
v 0.453156 -1.401530 1.070174
v 0.864073 -1.192901 1.070174
v 1.190409 -0.867503 1.070174
v 1.400219 -0.457187 1.070174
v 1.472967 -0.002120 1.070174
v 1.401529 0.453156 1.070174
v 1.192901 0.864074 1.070174
v 0.867503 1.190410 1.070174
v 0.457187 1.400219 1.070174
v 0.001852 1.287422 1.287422
v -0.396073 1.224983 1.287422
v -0.755229 1.042635 1.287422
v -1.040456 0.758226 1.287422
v -1.223837 0.399597 1.287422
v -1.287421 0.001853 1.287422
v -1.224983 -0.396072 1.287422
v -1.042634 -0.755228 1.287422
v -0.758226 -1.040456 1.287422
v -0.399597 -1.223837 1.287422
v -0.001853 -1.287421 1.287422
v 0.396072 -1.224982 1.287422
v 0.755228 -1.042633 1.287422
v 1.040456 -0.758225 1.287422
v 1.223836 -0.399596 1.287422
v 1.287421 -0.001853 1.287422
v 1.224982 0.396073 1.287422
v 1.042633 0.755228 1.287422
v 0.758225 1.040456 1.287422
v 0.399597 1.223837 1.287422
v 0.001453 1.010285 1.493661
v -0.310813 0.961287 1.493661
v -0.592654 0.818192 1.493661
v -0.816482 0.595006 1.493661
v -0.960388 0.313578 1.493661
v -1.010284 0.001454 1.493661
v -0.961286 -0.310812 1.493661
v -0.818192 -0.592653 1.493661
v -0.595007 -0.816482 1.493661
v -0.313578 -0.960388 1.493661
v -0.001454 -1.010284 1.493661
v 0.310812 -0.961285 1.493661
v 0.592653 -0.818191 1.493661
v 0.816482 -0.595006 1.493661
v 0.960388 -0.313578 1.493661
v 1.010284 -0.001454 1.493661
v 0.961286 0.310813 1.493661
v 0.818191 0.592654 1.493661
v 0.595006 0.816482 1.493661
v 0.313578 0.960388 1.493661
v 0.000990 0.687780 1.608532
v -0.211595 0.654423 1.608532
v -0.403466 0.557007 1.608532
v -0.555844 0.405067 1.608532
v -0.653812 0.213477 1.608532
v -0.687780 0.000990 1.608532
v -0.654422 -0.211594 1.608532
v -0.557007 -0.403465 1.608532
v -0.405067 -0.555843 1.608532
v -0.213477 -0.653811 1.608532
v -0.000990 -0.687779 1.608532
v 0.211594 -0.654422 1.608532
v 0.403466 -0.557006 1.608532
v 0.555843 -0.405067 1.608532
v 0.653811 -0.213477 1.608532
v 0.687779 -0.000990 1.608532
v 0.654422 0.211594 1.608532
v 0.557006 0.403466 1.608532
v 0.405067 0.555843 1.608532
v 0.213477 0.653811 1.608532
v 0.000892 0.620009 1.538288
v -0.190745 0.589939 1.538288
v -0.142133 0.439594 1.462816
v 0.000665 0.462000 1.462816
v -0.363710 0.502122 1.538288
v -0.271020 0.374157 1.462816
v -0.501073 0.365154 1.538288
v -0.373375 0.272095 1.462816
v -0.589387 0.192442 1.538288
v -0.439183 0.143398 1.462816
v -0.620009 0.000892 1.538288
v -0.462000 0.000665 1.462816
v -0.589939 -0.190745 1.538288
v -0.439593 -0.142134 1.462816
v -0.502122 -0.363710 1.538288
v -0.374156 -0.271019 1.462816
v -0.365154 -0.501073 1.538288
v -0.272095 -0.373375 1.462816
v -0.192442 -0.589387 1.538288
v -0.143398 -0.439182 1.462816
v -0.000892 -0.620009 1.538288
v -0.000665 -0.462000 1.462816
v 0.190744 -0.589938 1.538288
v 0.142134 -0.439593 1.462816
v 0.363710 -0.502122 1.538288
v 0.271019 -0.374156 1.462816
v 0.501073 -0.365154 1.538288
v 0.373375 -0.272094 1.462816
v 0.589387 -0.192441 1.538288
v 0.439182 -0.143398 1.462816
v 0.620009 -0.000892 1.538288
v 0.461999 -0.000665 1.462816
v 0.589939 0.190745 1.538288
v 0.439593 0.142134 1.462816
v 0.502121 0.363710 1.538288
v 0.374156 0.271019 1.462816
v 0.365154 0.501073 1.538288
v 0.272095 0.373375 1.462816
v 0.192442 0.589387 1.538288
v 0.143398 0.439182 1.462816
v -0.068420 0.211612 1.403046
v 0.000320 0.222398 1.403046
v -0.130464 0.180111 1.403046
v -0.179735 0.130981 1.403046
v -0.211414 0.069029 1.403046
v -0.222398 0.000320 1.403046
v -0.211612 -0.068420 1.403046
v -0.180111 -0.130463 1.403046
v -0.130981 -0.179734 1.403046
v -0.069029 -0.211413 1.403046
v -0.000320 -0.222397 1.403046
v 0.068420 -0.211611 1.403046
v 0.130463 -0.180111 1.403046
v 0.179734 -0.130981 1.403046
v 0.211413 -0.069029 1.403046
v 0.222397 -0.000319 1.403046
v 0.211611 0.068420 1.403046
v 0.180110 0.130463 1.403046
v 0.130980 0.179736 1.403046
v 0.069029 0.211413 1.403046
v 0.000000 0.000000 1.379997
v -0.202526 0.626376 1.566530
v 0.000947 0.658303 1.566530
v 0.204328 0.625790 1.566530
v 0.387707 0.532021 1.566530
v 0.533134 0.386174 1.566530
v 0.626376 0.202526 1.566530
v 0.658303 -0.000947 1.566530
v 0.625790 -0.204327 1.566530
v 0.532021 -0.387707 1.566530
v 0.386174 -0.533135 1.566530
v 0.202525 -0.626375 1.566530
v -0.000947 -0.658303 1.566530
v -0.204328 -0.625790 1.566530
v -0.387707 -0.532021 1.566530
v -0.533135 -0.386174 1.566530
v -0.626376 -0.202526 1.566530
v -0.658303 0.000947 1.566530
v -0.625791 0.204328 1.566530
v -0.532022 0.387707 1.566530
v -0.386174 0.533135 1.566530
vt 0.015216 0.458369
vt 0.063695 0.458369
vt 0.063695 0.506848
vt 0.015216 0.506848
vt 0.112173 0.458369
vt 0.112173 0.506848
vt 0.160651 0.458369
vt 0.160651 0.506848
vt 0.209130 0.458369
vt 0.209130 0.506848
vt 0.257608 0.458369
vt 0.257608 0.506848
vt 0.306087 0.458369
vt 0.306087 0.506848
vt 0.354565 0.458369
vt 0.354565 0.506848
vt 0.403043 0.458369
vt 0.403043 0.506848
vt 0.451522 0.458369
vt 0.451522 0.506848
vt 0.500000 0.458369
vt 0.500000 0.506848
vt 0.548478 0.458369
vt 0.548478 0.506848
vt 0.596957 0.458369
vt 0.596957 0.506848
vt 0.645435 0.458369
vt 0.645435 0.506848
vt 0.693914 0.458369
vt 0.693914 0.506848
vt 0.742392 0.458369
vt 0.742392 0.506848
vt 0.790870 0.458369
vt 0.790870 0.506848
vt 0.839349 0.458369
vt 0.839349 0.506848
vt 0.887827 0.458369
vt 0.887827 0.506848
vt 0.936305 0.458369
vt 0.936305 0.506848
vt 0.984784 0.458369
vt 0.984784 0.506848
vt 0.063695 0.555326
vt 0.015216 0.555326
vt 0.112173 0.555326
vt 0.160651 0.555326
vt 0.209130 0.555326
vt 0.257608 0.555326
vt 0.306087 0.555326
vt 0.354565 0.555326
vt 0.403043 0.555326
vt 0.451522 0.555326
vt 0.500000 0.555326
vt 0.548478 0.555326
vt 0.596957 0.555326
vt 0.645435 0.555326
vt 0.693914 0.555326
vt 0.742392 0.555326
vt 0.790870 0.555326
vt 0.839349 0.555326
vt 0.887827 0.555326
vt 0.936305 0.555326
vt 0.984784 0.555326
vt 0.063695 0.603804
vt 0.015216 0.603804
vt 0.112173 0.603804
vt 0.160651 0.603804
vt 0.209130 0.603804
vt 0.257608 0.603804
vt 0.306087 0.603804
vt 0.354565 0.603804
vt 0.403043 0.603804
vt 0.451522 0.603804
vt 0.500000 0.603804
vt 0.548478 0.603804
vt 0.596957 0.603804
vt 0.645435 0.603804
vt 0.693914 0.603804
vt 0.742392 0.603804
vt 0.790870 0.603804
vt 0.839349 0.603804
vt 0.887827 0.603804
vt 0.936305 0.603804
vt 0.984784 0.603804
vt 0.063695 0.652283
vt 0.015216 0.652283
vt 0.112173 0.652283
vt 0.160651 0.652283
vt 0.209130 0.652283
vt 0.257608 0.652283
vt 0.306087 0.652283
vt 0.354565 0.652283
vt 0.403043 0.652283
vt 0.451522 0.652283
vt 0.500000 0.652283
vt 0.548478 0.652283
vt 0.596957 0.652283
vt 0.645435 0.652283
vt 0.693914 0.652283
vt 0.742392 0.652283
vt 0.790870 0.652283
vt 0.839349 0.652283
vt 0.887827 0.652283
vt 0.936305 0.652283
vt 0.984784 0.652283
vt 0.063695 0.700761
vt 0.015216 0.700761
vt 0.112173 0.700761
vt 0.160651 0.700761
vt 0.209130 0.700761
vt 0.257608 0.700761
vt 0.306087 0.700761
vt 0.354565 0.700761
vt 0.403043 0.700761
vt 0.451522 0.700761
vt 0.500000 0.700761
vt 0.548478 0.700761
vt 0.596957 0.700761
vt 0.645435 0.700761
vt 0.693914 0.700761
vt 0.742392 0.700761
vt 0.790870 0.700761
vt 0.839349 0.700761
vt 0.887827 0.700761
vt 0.936305 0.700761
vt 0.984784 0.700761
vt 0.063695 0.749239
vt 0.015216 0.749239
vt 0.112173 0.749239
vt 0.160651 0.749239
vt 0.209130 0.749239
vt 0.257608 0.749239
vt 0.306087 0.749239
vt 0.354565 0.749239
vt 0.403043 0.749239
vt 0.451522 0.749239
vt 0.500000 0.749239
vt 0.548478 0.749239
vt 0.596957 0.749239
vt 0.645435 0.749239
vt 0.693914 0.749239
vt 0.742392 0.749239
vt 0.790870 0.749239
vt 0.839349 0.749239
vt 0.887827 0.749239
vt 0.936305 0.749239
vt 0.984784 0.749239
vt 0.063695 0.797718
vt 0.015216 0.797718
vt 0.112173 0.797718
vt 0.160651 0.797718
vt 0.209130 0.797718
vt 0.257608 0.797718
vt 0.306087 0.797718
vt 0.354565 0.797718
vt 0.403043 0.797718
vt 0.451522 0.797718
vt 0.500000 0.797718
vt 0.548478 0.797718
vt 0.596957 0.797718
vt 0.645435 0.797718
vt 0.693914 0.797718
vt 0.742392 0.797718
vt 0.790870 0.797718
vt 0.839349 0.797718
vt 0.887827 0.797718
vt 0.936305 0.797718
vt 0.984784 0.797718
vt 0.015216 0.846196
vt 0.063695 0.846196
vt 0.063695 0.894674
vt 0.015216 0.894674
vt 0.112173 0.846196
vt 0.112173 0.894674
vt 0.160651 0.846196
vt 0.160651 0.894674
vt 0.209130 0.846196
vt 0.209130 0.894674
vt 0.257608 0.846196
vt 0.257608 0.894674
vt 0.306087 0.846196
vt 0.306087 0.894674
vt 0.354565 0.846196
vt 0.354565 0.894674
vt 0.403043 0.846196
vt 0.403043 0.894674
vt 0.451522 0.846196
vt 0.451522 0.894674
vt 0.500000 0.846196
vt 0.500000 0.894674
vt 0.548478 0.846196
vt 0.548478 0.894674
vt 0.596957 0.846196
vt 0.596957 0.894674
vt 0.645435 0.846196
vt 0.645435 0.894674
vt 0.693914 0.846196
vt 0.693914 0.894674
vt 0.742392 0.846196
vt 0.742392 0.894674
vt 0.790870 0.846196
vt 0.790870 0.894674
vt 0.839349 0.846196
vt 0.839349 0.894674
vt 0.887827 0.846196
vt 0.887827 0.894674
vt 0.936305 0.846196
vt 0.936305 0.894674
vt 0.984784 0.846196
vt 0.984784 0.894674
vt 0.063695 0.943153
vt 0.015216 0.943153
vt 0.112173 0.943153
vt 0.160651 0.943153
vt 0.209130 0.943153
vt 0.257608 0.943153
vt 0.306087 0.943153
vt 0.354565 0.943153
vt 0.403043 0.943153
vt 0.451522 0.943153
vt 0.500000 0.943153
vt 0.548478 0.943153
vt 0.596957 0.943153
vt 0.645435 0.943153
vt 0.693914 0.943153
vt 0.742392 0.943153
vt 0.790870 0.943153
vt 0.839349 0.943153
vt 0.887827 0.943153
vt 0.936305 0.943153
vt 0.984784 0.943153
vt 0.039456 0.991631
vt 0.087934 0.991631
vt 0.136412 0.991631
vt 0.184891 0.991631
vt 0.233369 0.991631
vt 0.281847 0.991631
vt 0.330326 0.991631
vt 0.378804 0.991631
vt 0.427282 0.991631
vt 0.475761 0.991631
vt 0.524239 0.991631
vt 0.572718 0.991631
vt 0.621196 0.991631
vt 0.669674 0.991631
vt 0.718153 0.991631
vt 0.766631 0.991631
vt 0.815109 0.991631
vt 0.863588 0.991631
vt 0.912066 0.991631
vt 0.960544 0.991631
vt 0.063695 0.822523
vt 0.015216 0.822523
vt 0.984784 0.822523
vt 0.936305 0.822523
vt 0.887827 0.822523
vt 0.839349 0.822523
vt 0.790870 0.822523
vt 0.742392 0.822523
vt 0.693914 0.822523
vt 0.645435 0.822523
vt 0.596957 0.822523
vt 0.548478 0.822523
vt 0.500000 0.822523
vt 0.451522 0.822523
vt 0.403043 0.822523
vt 0.354565 0.822523
vt 0.306087 0.822523
vt 0.257608 0.822523
vt 0.209130 0.822523
vt 0.160651 0.822523
vt 0.112173 0.822523
vn 0.001436 0.996916 0.078459
vn -0.306700 0.948567 0.078458
vn -0.303966 0.940113 0.154249
vn 0.001423 0.988031 0.154249
vn -0.584812 0.807365 0.078459
vn -0.579600 0.800170 0.154249
vn -0.805679 0.587133 0.078459
vn -0.798499 0.581900 0.154248
vn -0.947680 0.309428 0.078459
vn -0.939234 0.306671 0.154248
vn -0.996916 0.001435 0.078458
vn -0.988031 0.001421 0.154248
vn -0.948567 -0.306700 0.078459
vn -0.940113 -0.303966 0.154249
vn -0.807365 -0.584812 0.078459
vn -0.800169 -0.579600 0.154249
vn -0.587133 -0.805679 0.078459
vn -0.581901 -0.798498 0.154249
vn -0.309428 -0.947680 0.078459
vn -0.306671 -0.939234 0.154248
vn -0.001435 -0.996916 0.078459
vn -0.001421 -0.988031 0.154248
vn 0.306700 -0.948567 0.078459
vn 0.303966 -0.940113 0.154249
vn 0.584812 -0.807365 0.078459
vn 0.579600 -0.800170 0.154249
vn 0.805679 -0.587133 0.078459
vn 0.798498 -0.581901 0.154249
vn 0.947681 -0.309428 0.078458
vn 0.939234 -0.306671 0.154248
vn 0.996916 -0.001435 0.078458
vn 0.988031 -0.001421 0.154249
vn 0.948567 0.306700 0.078459
vn 0.940113 0.303966 0.154248
vn 0.807365 0.584812 0.078459
vn 0.800170 0.579600 0.154248
vn 0.587134 0.805679 0.078458
vn 0.581901 0.798498 0.154248
vn 0.309429 0.947680 0.078458
vn 0.306672 0.939234 0.154248
vn -0.293010 0.906228 0.304789
vn 0.001372 0.952419 0.304789
vn -0.558709 0.771328 0.304789
vn -0.769717 0.560927 0.304789
vn -0.905381 0.295617 0.304789
vn -0.952419 0.001370 0.304789
vn -0.906228 -0.293011 0.304789
vn -0.771328 -0.558709 0.304789
vn -0.560927 -0.769717 0.304789
vn -0.295617 -0.905381 0.304788
vn -0.001370 -0.952419 0.304789
vn 0.293010 -0.906228 0.304789
vn 0.558709 -0.771329 0.304788
vn 0.769717 -0.560927 0.304789
vn 0.905381 -0.295617 0.304789
vn 0.952419 -0.001370 0.304789
vn 0.906228 0.293010 0.304789
vn 0.771328 0.558709 0.304789
vn 0.560927 0.769717 0.304789
vn 0.295618 0.905380 0.304789
vn -0.275049 0.850676 0.447994
vn 0.001287 0.894036 0.447994
vn -0.524461 0.724046 0.447994
vn -0.722534 0.526541 0.447994
vn -0.849881 0.277496 0.447994
vn -0.894036 0.001286 0.447994
vn -0.850676 -0.275049 0.447994
vn -0.724046 -0.524461 0.447994
vn -0.526541 -0.722534 0.447994
vn -0.277496 -0.849881 0.447994
vn -0.001286 -0.894036 0.447994
vn 0.275049 -0.850676 0.447994
vn 0.524460 -0.724047 0.447994
vn 0.722534 -0.526541 0.447994
vn 0.849881 -0.277496 0.447994
vn 0.894036 -0.001286 0.447994
vn 0.850676 0.275049 0.447994
vn 0.724046 0.524460 0.447994
vn 0.526541 0.722534 0.447994
vn 0.277497 0.849881 0.447994
vn -0.250527 0.774836 0.580401
vn 0.001173 0.814330 0.580401
vn -0.477703 0.659496 0.580401
vn -0.658119 0.479599 0.580400
vn -0.774112 0.252756 0.580400
vn -0.814330 0.001172 0.580401
vn -0.774836 -0.250528 0.580401
vn -0.659496 -0.477703 0.580401
vn -0.479599 -0.658118 0.580401
vn -0.252756 -0.774112 0.580401
vn -0.001172 -0.814330 0.580401
vn 0.250527 -0.774836 0.580401
vn 0.477703 -0.659496 0.580401
vn 0.658118 -0.479599 0.580401
vn 0.774112 -0.252756 0.580401
vn 0.814330 -0.001172 0.580401
vn 0.774836 0.250527 0.580401
vn 0.659496 0.477704 0.580400
vn 0.479599 0.658119 0.580400
vn 0.252757 0.774112 0.580401
vn -0.211880 0.655307 0.725038
vn 0.000992 0.688708 0.725038
vn -0.404011 0.557759 0.725038
vn -0.556594 0.405614 0.725038
vn -0.654694 0.213765 0.725038
vn -0.688708 0.000991 0.725038
vn -0.655307 -0.211880 0.725038
vn -0.557759 -0.404011 0.725038
vn -0.405614 -0.556594 0.725038
vn -0.213765 -0.654694 0.725038
vn -0.000991 -0.688708 0.725038
vn 0.211880 -0.655307 0.725038
vn 0.404011 -0.557759 0.725038
vn 0.556594 -0.405614 0.725038
vn 0.654694 -0.213765 0.725038
vn 0.688708 -0.000991 0.725038
vn 0.655307 0.211880 0.725038
vn 0.557759 0.404011 0.725038
vn 0.405614 0.556594 0.725038
vn 0.213765 0.654694 0.725038
vn -0.160312 0.495813 0.853504
vn 0.000750 0.521085 0.853505
vn -0.305679 0.422007 0.853505
vn -0.421126 0.306892 0.853505
vn -0.495349 0.161737 0.853505
vn -0.521084 0.000750 0.853505
vn -0.495813 -0.160311 0.853505
vn -0.422007 -0.305679 0.853505
vn -0.306892 -0.421126 0.853505
vn -0.161737 -0.495349 0.853505
vn -0.000750 -0.521085 0.853505
vn 0.160311 -0.495813 0.853505
vn 0.305679 -0.422007 0.853505
vn 0.421126 -0.306892 0.853505
vn 0.495349 -0.161737 0.853505
vn 0.521085 -0.000750 0.853505
vn 0.495813 0.160311 0.853505
vn 0.422007 0.305679 0.853505
vn 0.306892 0.421126 0.853505
vn 0.161738 0.495349 0.853505
vn -0.115465 0.357111 0.926898
vn 0.000541 0.375314 0.926898
vn -0.220167 0.303953 0.926898
vn -0.303318 0.221040 0.926898
vn -0.356777 0.116492 0.926898
vn -0.375314 0.000540 0.926898
vn -0.357112 -0.115464 0.926898
vn -0.303953 -0.220167 0.926898
vn -0.221040 -0.303318 0.926898
vn -0.116492 -0.356777 0.926898
vn -0.000541 -0.375314 0.926898
vn 0.115464 -0.357112 0.926898
vn 0.220167 -0.303953 0.926898
vn 0.303318 -0.221040 0.926898
vn 0.356777 -0.116492 0.926898
vn 0.375314 -0.000540 0.926898
vn 0.357112 0.115464 0.926898
vn 0.303953 0.220167 0.926898
vn 0.221040 0.303318 0.926898
vn 0.116493 0.356777 0.926898
vn -0.000530 -0.368230 0.929735
vn 0.113286 -0.350372 0.929734
vn 0.107729 -0.333183 0.936688
vn -0.000504 -0.350166 0.936688
vn 0.216013 -0.298217 0.929734
vn 0.205414 -0.283587 0.936688
vn 0.297594 -0.216870 0.929734
vn 0.282994 -0.206230 0.936688
vn 0.350044 -0.114293 0.929734
vn 0.332871 -0.108686 0.936688
vn 0.368230 -0.000529 0.929734
vn 0.350166 -0.000504 0.936688
vn 0.350372 0.113286 0.929734
vn 0.333183 0.107729 0.936688
vn 0.298217 0.216012 0.929734
vn 0.283587 0.205414 0.936688
vn 0.216868 0.297593 0.929735
vn 0.206230 0.282994 0.936688
vn 0.114293 0.350045 0.929734
vn 0.108686 0.332872 0.936688
vn 0.000529 0.368230 0.929734
vn 0.000504 0.350166 0.936688
vn -0.113286 0.350372 0.929734
vn -0.107729 0.333183 0.936688
vn -0.216012 0.298217 0.929734
vn -0.205414 0.283587 0.936688
vn -0.297594 0.216869 0.929734
vn -0.282994 0.206230 0.936688
vn -0.350044 0.114293 0.929734
vn -0.332871 0.108686 0.936688
vn -0.368231 0.000531 0.929734
vn -0.350166 0.000504 0.936688
vn -0.350372 -0.113286 0.929734
vn -0.333183 -0.107729 0.936688
vn -0.298217 -0.216012 0.929734
vn -0.283587 -0.205414 0.936688
vn -0.216868 -0.297593 0.929735
vn -0.206230 -0.282994 0.936688
vn -0.114293 -0.350045 0.929734
vn -0.108686 -0.332872 0.936688
vn 0.088187 -0.272746 0.958036
vn -0.000413 -0.286648 0.958036
vn 0.168153 -0.232146 0.958036
vn 0.231660 -0.168821 0.958036
vn 0.272491 -0.088971 0.958036
vn 0.286648 -0.000413 0.958036
vn 0.272746 0.088187 0.958036
vn 0.232146 0.168154 0.958036
vn 0.168821 0.231661 0.958036
vn 0.088971 0.272491 0.958036
vn 0.000413 0.286648 0.958036
vn -0.088187 0.272747 0.958036
vn -0.168154 0.232146 0.958036
vn -0.231661 0.168821 0.958036
vn -0.272492 0.088972 0.958036
vn -0.286648 0.000413 0.958036
vn -0.272746 -0.088187 0.958036
vn -0.232146 -0.168154 0.958036
vn -0.168822 -0.231661 0.958036
vn -0.088972 -0.272492 0.958036
vn 0.000000 0.000000 1.000000
vn 0.224678 -0.694890 0.683116
vn -0.001051 -0.730310 0.683115
vn 0.428414 -0.591449 0.683117
vn 0.590214 -0.430114 0.683117
vn 0.694239 -0.226677 0.683118
vn 0.730309 -0.001050 0.683116
vn 0.694891 0.224679 0.683114
vn 0.591452 0.428416 0.683113
vn 0.430117 0.590218 0.683113
vn 0.226678 0.694244 0.683112
vn 0.001050 0.730312 0.683113
vn -0.224680 0.694893 0.683113
vn -0.428416 0.591453 0.683113
vn -0.590217 0.430116 0.683113
vn -0.694242 0.226678 0.683115
vn -0.730311 0.001051 0.683114
vn -0.694892 -0.224680 0.683113
vn -0.591453 -0.428416 0.683113
vn -0.430117 -0.590217 0.683113
vn -0.226679 -0.694243 0.683113
s 1
g eyeBall
usemtl blinn2SG
f 1/1/1 2/2/2 22/3/3 21/4/4
f 2/2/2 3/5/5 23/6/6 22/3/3
f 3/5/5 4/7/7 24/8/8 23/6/6
f 4/7/7 5/9/9 25/10/10 24/8/8
f 5/9/9 6/11/11 26/12/12 25/10/10
f 6/11/11 7/13/13 27/14/14 26/12/12
f 7/13/13 8/15/15 28/16/16 27/14/14
f 8/15/15 9/17/17 29/18/18 28/16/16
f 9/17/17 10/19/19 30/20/20 29/18/18
f 10/19/19 11/21/21 31/22/22 30/20/20
f 11/21/21 12/23/23 32/24/24 31/22/22
f 12/23/23 13/25/25 33/26/26 32/24/24
f 13/25/25 14/27/27 34/28/28 33/26/26
f 14/27/27 15/29/29 35/30/30 34/28/28
f 15/29/29 16/31/31 36/32/32 35/30/30
f 16/31/31 17/33/33 37/34/34 36/32/32
f 17/33/33 18/35/35 38/36/36 37/34/34
f 18/35/35 19/37/37 39/38/38 38/36/36
f 19/37/37 20/39/39 40/40/40 39/38/38
f 20/39/39 1/41/1 21/42/4 40/40/40
f 21/4/4 22/3/3 42/43/41 41/44/42
f 22/3/3 23/6/6 43/45/43 42/43/41
f 23/6/6 24/8/8 44/46/44 43/45/43
f 24/8/8 25/10/10 45/47/45 44/46/44
f 25/10/10 26/12/12 46/48/46 45/47/45
f 26/12/12 27/14/14 47/49/47 46/48/46
f 27/14/14 28/16/16 48/50/48 47/49/47
f 28/16/16 29/18/18 49/51/49 48/50/48
f 29/18/18 30/20/20 50/52/50 49/51/49
f 30/20/20 31/22/22 51/53/51 50/52/50
f 31/22/22 32/24/24 52/54/52 51/53/51
f 32/24/24 33/26/26 53/55/53 52/54/52
f 33/26/26 34/28/28 54/56/54 53/55/53
f 34/28/28 35/30/30 55/57/55 54/56/54
f 35/30/30 36/32/32 56/58/56 55/57/55
f 36/32/32 37/34/34 57/59/57 56/58/56
f 37/34/34 38/36/36 58/60/58 57/59/57
f 38/36/36 39/38/38 59/61/59 58/60/58
f 39/38/38 40/40/40 60/62/60 59/61/59
f 40/40/40 21/42/4 41/63/42 60/62/60
f 41/44/42 42/43/41 62/64/61 61/65/62
f 42/43/41 43/45/43 63/66/63 62/64/61
f 43/45/43 44/46/44 64/67/64 63/66/63
f 44/46/44 45/47/45 65/68/65 64/67/64
f 45/47/45 46/48/46 66/69/66 65/68/65
f 46/48/46 47/49/47 67/70/67 66/69/66
f 47/49/47 48/50/48 68/71/68 67/70/67
f 48/50/48 49/51/49 69/72/69 68/71/68
f 49/51/49 50/52/50 70/73/70 69/72/69
f 50/52/50 51/53/51 71/74/71 70/73/70
f 51/53/51 52/54/52 72/75/72 71/74/71
f 52/54/52 53/55/53 73/76/73 72/75/72
f 53/55/53 54/56/54 74/77/74 73/76/73
f 54/56/54 55/57/55 75/78/75 74/77/74
f 55/57/55 56/58/56 76/79/76 75/78/75
f 56/58/56 57/59/57 77/80/77 76/79/76
f 57/59/57 58/60/58 78/81/78 77/80/77
f 58/60/58 59/61/59 79/82/79 78/81/78
f 59/61/59 60/62/60 80/83/80 79/82/79
f 60/62/60 41/63/42 61/84/62 80/83/80
f 61/65/62 62/64/61 82/85/81 81/86/82
f 62/64/61 63/66/63 83/87/83 82/85/81
f 63/66/63 64/67/64 84/88/84 83/87/83
f 64/67/64 65/68/65 85/89/85 84/88/84
f 65/68/65 66/69/66 86/90/86 85/89/85
f 66/69/66 67/70/67 87/91/87 86/90/86
f 67/70/67 68/71/68 88/92/88 87/91/87
f 68/71/68 69/72/69 89/93/89 88/92/88
f 69/72/69 70/73/70 90/94/90 89/93/89
f 70/73/70 71/74/71 91/95/91 90/94/90
f 71/74/71 72/75/72 92/96/92 91/95/91
f 72/75/72 73/76/73 93/97/93 92/96/92
f 73/76/73 74/77/74 94/98/94 93/97/93
f 74/77/74 75/78/75 95/99/95 94/98/94
f 75/78/75 76/79/76 96/100/96 95/99/95
f 76/79/76 77/80/77 97/101/97 96/100/96
f 77/80/77 78/81/78 98/102/98 97/101/97
f 78/81/78 79/82/79 99/103/99 98/102/98
f 79/82/79 80/83/80 100/104/100 99/103/99
f 80/83/80 61/84/62 81/105/82 100/104/100
f 81/86/82 82/85/81 102/106/101 101/107/102
f 82/85/81 83/87/83 103/108/103 102/106/101
f 83/87/83 84/88/84 104/109/104 103/108/103
f 84/88/84 85/89/85 105/110/105 104/109/104
f 85/89/85 86/90/86 106/111/106 105/110/105
f 86/90/86 87/91/87 107/112/107 106/111/106
f 87/91/87 88/92/88 108/113/108 107/112/107
f 88/92/88 89/93/89 109/114/109 108/113/108
f 89/93/89 90/94/90 110/115/110 109/114/109
f 90/94/90 91/95/91 111/116/111 110/115/110
f 91/95/91 92/96/92 112/117/112 111/116/111
f 92/96/92 93/97/93 113/118/113 112/117/112
f 93/97/93 94/98/94 114/119/114 113/118/113
f 94/98/94 95/99/95 115/120/115 114/119/114
f 95/99/95 96/100/96 116/121/116 115/120/115
f 96/100/96 97/101/97 117/122/117 116/121/116
f 97/101/97 98/102/98 118/123/118 117/122/117
f 98/102/98 99/103/99 119/124/119 118/123/118
f 99/103/99 100/104/100 120/125/120 119/124/119
f 100/104/100 81/105/82 101/126/102 120/125/120
f 101/107/102 102/106/101 122/127/121 121/128/122
f 102/106/101 103/108/103 123/129/123 122/127/121
f 103/108/103 104/109/104 124/130/124 123/129/123
f 104/109/104 105/110/105 125/131/125 124/130/124
f 105/110/105 106/111/106 126/132/126 125/131/125
f 106/111/106 107/112/107 127/133/127 126/132/126
f 107/112/107 108/113/108 128/134/128 127/133/127
f 108/113/108 109/114/109 129/135/129 128/134/128
f 109/114/109 110/115/110 130/136/130 129/135/129
f 110/115/110 111/116/111 131/137/131 130/136/130
f 111/116/111 112/117/112 132/138/132 131/137/131
f 112/117/112 113/118/113 133/139/133 132/138/132
f 113/118/113 114/119/114 134/140/134 133/139/133
f 114/119/114 115/120/115 135/141/135 134/140/134
f 115/120/115 116/121/116 136/142/136 135/141/135
f 116/121/116 117/122/117 137/143/137 136/142/136
f 117/122/117 118/123/118 138/144/138 137/143/137
f 118/123/118 119/124/119 139/145/139 138/144/138
f 119/124/119 120/125/120 140/146/140 139/145/139
f 120/125/120 101/126/102 121/147/122 140/146/140
f 121/128/122 122/127/121 142/148/141 141/149/142
f 122/127/121 123/129/123 143/150/143 142/148/141
f 123/129/123 124/130/124 144/151/144 143/150/143
f 124/130/124 125/131/125 145/152/145 144/151/144
f 125/131/125 126/132/126 146/153/146 145/152/145
f 126/132/126 127/133/127 147/154/147 146/153/146
f 127/133/127 128/134/128 148/155/148 147/154/147
f 128/134/128 129/135/129 149/156/149 148/155/148
f 129/135/129 130/136/130 150/157/150 149/156/149
f 130/136/130 131/137/131 151/158/151 150/157/150
f 131/137/131 132/138/132 152/159/152 151/158/151
f 132/138/132 133/139/133 153/160/153 152/159/152
f 133/139/133 134/140/134 154/161/154 153/160/153
f 134/140/134 135/141/135 155/162/155 154/161/154
f 135/141/135 136/142/136 156/163/156 155/162/155
f 136/142/136 137/143/137 157/164/157 156/163/156
f 137/143/137 138/144/138 158/165/158 157/164/157
f 138/144/138 139/145/139 159/166/159 158/165/158
f 139/145/139 140/146/140 160/167/160 159/166/159
f 140/146/140 121/147/122 141/168/142 160/167/160
f 161/169/161 162/170/162 163/171/163 164/172/164
f 162/170/162 165/173/165 166/174/166 163/171/163
f 165/173/165 167/175/167 168/176/168 166/174/166
f 167/175/167 169/177/169 170/178/170 168/176/168
f 169/177/169 171/179/171 172/180/172 170/178/170
f 171/179/171 173/181/173 174/182/174 172/180/172
f 173/181/173 175/183/175 176/184/176 174/182/174
f 175/183/175 177/185/177 178/186/178 176/184/176
f 177/185/177 179/187/179 180/188/180 178/186/178
f 179/187/179 181/189/181 182/190/182 180/188/180
f 181/189/181 183/191/183 184/192/184 182/190/182
f 183/191/183 185/193/185 186/194/186 184/192/184
f 185/193/185 187/195/187 188/196/188 186/194/186
f 187/195/187 189/197/189 190/198/190 188/196/188
f 189/197/189 191/199/191 192/200/192 190/198/190
f 191/199/191 193/201/193 194/202/194 192/200/192
f 193/201/193 195/203/195 196/204/196 194/202/194
f 195/203/195 197/205/197 198/206/198 196/204/196
f 197/205/197 199/207/199 200/208/200 198/206/198
f 199/207/199 161/209/161 164/210/164 200/208/200
f 164/172/164 163/171/163 201/211/201 202/212/202
f 163/171/163 166/174/166 203/213/203 201/211/201
f 166/174/166 168/176/168 204/214/204 203/213/203
f 168/176/168 170/178/170 205/215/205 204/214/204
f 170/178/170 172/180/172 206/216/206 205/215/205
f 172/180/172 174/182/174 207/217/207 206/216/206
f 174/182/174 176/184/176 208/218/208 207/217/207
f 176/184/176 178/186/178 209/219/209 208/218/208
f 178/186/178 180/188/180 210/220/210 209/219/209
f 180/188/180 182/190/182 211/221/211 210/220/210
f 182/190/182 184/192/184 212/222/212 211/221/211
f 184/192/184 186/194/186 213/223/213 212/222/212
f 186/194/186 188/196/188 214/224/214 213/223/213
f 188/196/188 190/198/190 215/225/215 214/224/214
f 190/198/190 192/200/192 216/226/216 215/225/215
f 192/200/192 194/202/194 217/227/217 216/226/216
f 194/202/194 196/204/196 218/228/218 217/227/217
f 196/204/196 198/206/198 219/229/219 218/228/218
f 198/206/198 200/208/200 220/230/220 219/229/219
f 200/208/200 164/210/164 202/231/202 220/230/220
f 202/212/202 201/211/201 221/232/221
f 201/211/201 203/213/203 221/233/221
f 203/213/203 204/214/204 221/234/221
f 204/214/204 205/215/205 221/235/221
f 205/215/205 206/216/206 221/236/221
f 206/216/206 207/217/207 221/237/221
f 207/217/207 208/218/208 221/238/221
f 208/218/208 209/219/209 221/239/221
f 209/219/209 210/220/210 221/240/221
f 210/220/210 211/221/211 221/241/221
f 211/221/211 212/222/212 221/242/221
f 212/222/212 213/223/213 221/243/221
f 213/223/213 214/224/214 221/244/221
f 214/224/214 215/225/215 221/245/221
f 215/225/215 216/226/216 221/246/221
f 216/226/216 217/227/217 221/247/221
f 217/227/217 218/228/218 221/248/221
f 218/228/218 219/229/219 221/249/221
f 219/229/219 220/230/220 221/250/221
f 220/230/220 202/231/202 221/251/221
f 141/149/142 142/148/141 222/252/222 223/253/223
f 142/148/141 143/150/143 241/272/224 222/252/222
f 143/150/143 144/151/144 240/271/225 241/272/224
f 144/151/144 145/152/145 239/270/226 240/271/225
f 145/152/145 146/153/146 238/269/227 239/270/226
f 146/153/146 147/154/147 237/268/228 238/269/227
f 147/154/147 148/155/148 236/267/229 237/268/228
f 148/155/148 149/156/149 235/266/230 236/267/229
f 149/156/149 150/157/150 234/265/231 235/266/230
f 150/157/150 151/158/151 233/264/232 234/265/231
f 151/158/151 152/159/152 232/263/233 233/264/232
f 152/159/152 153/160/153 231/262/234 232/263/233
f 153/160/153 154/161/154 230/261/235 231/262/234
f 154/161/154 155/162/155 229/260/236 230/261/235
f 155/162/155 156/163/156 228/259/237 229/260/236
f 156/163/156 157/164/157 227/258/238 228/259/237
f 157/164/157 158/165/158 226/257/239 227/258/238
f 158/165/158 159/166/159 225/256/240 226/257/239
f 159/166/159 160/167/160 224/255/241 225/256/240
f 160/167/160 141/168/142 223/254/223 224/255/241
f 223/253/223 222/252/222 162/170/162 161/169/161
f 224/255/241 223/254/223 161/209/161 199/207/199
f 225/256/240 224/255/241 199/207/199 197/205/197
f 226/257/239 225/256/240 197/205/197 195/203/195
f 227/258/238 226/257/239 195/203/195 193/201/193
f 228/259/237 227/258/238 193/201/193 191/199/191
f 229/260/236 228/259/237 191/199/191 189/197/189
f 230/261/235 229/260/236 189/197/189 187/195/187
f 231/262/234 230/261/235 187/195/187 185/193/185
f 232/263/233 231/262/234 185/193/185 183/191/183
f 233/264/232 232/263/233 183/191/183 181/189/181
f 234/265/231 233/264/232 181/189/181 179/187/179
f 235/266/230 234/265/231 179/187/179 177/185/177
f 236/267/229 235/266/230 177/185/177 175/183/175
f 237/268/228 236/267/229 175/183/175 173/181/173
f 238/269/227 237/268/228 173/181/173 171/179/171
f 239/270/226 238/269/227 171/179/171 169/177/169
f 240/271/225 239/270/226 169/177/169 167/175/167
f 241/272/224 240/271/225 167/175/167 165/173/165
f 222/252/222 241/272/224 165/173/165 162/170/162
