# This file uses centimeters as units for non-parametric coordinates.

mtllib glasses.mtl
g default
v -6.528218 0.986572 2.985438
v -6.750392 2.011810 2.938382
v -5.751999 1.618652 3.529541
v -6.896516 2.875397 2.929343
v -5.725661 2.534485 3.583017
v -6.700502 3.440277 3.039366
v -6.278109 3.810852 3.231530
v -5.275741 3.181458 3.773177
v -5.513607 4.186798 3.542526
v -4.621035 4.305725 3.833242
v -4.119797 3.368881 4.115309
v -3.530418 4.288132 4.100931
v -2.562283 4.070877 4.257568
v -2.910549 3.094467 4.347658
v -1.752007 3.650162 4.326555
v -1.340148 3.141434 4.329515
v -2.396818 2.643570 4.398831
v -1.364523 1.833084 4.262468
v -2.487574 1.492447 4.329438
v -1.604601 0.763138 4.193206
v -2.014096 0.037247 4.121188
v -3.038037 0.526840 4.197991
v -2.706043 -0.537979 4.005991
v -3.583149 -0.831482 3.833873
v -4.111759 0.171066 3.957500
v -4.543797 -0.812958 3.599557
v -5.406778 -0.482880 3.347022
v -5.163879 0.553070 3.678574
v -6.035983 0.064484 3.142542
v -4.132309 1.903214 4.129689
v 6.611824 1.995422 2.931281
v 6.387197 0.970734 2.978574
v 6.565567 3.424011 3.032316
v 6.144331 3.795593 3.224927
v 5.381151 4.173431 3.536736
v 4.489247 4.294556 3.828401
v 3.398934 4.279617 4.097248
v 2.430470 4.064774 4.254914
v 1.619254 3.646011 4.324763
v 1.206153 3.138290 4.328163
v 1.227233 1.829910 4.261091
v 1.464597 0.759384 4.191575
v 1.872219 0.032486 4.119123
v 2.562604 -0.544418 4.003191
v 3.438766 -0.840088 3.830141
v 4.399156 -0.823914 3.594804
v 5.262619 -0.495972 3.341352
v 5.892901 0.049866 3.136202
v 5.613227 1.604706 3.523501
v 5.141117 3.168671 3.767641
v 3.986076 3.358932 4.111001
v 2.776455 3.087479 4.344635
v 2.261686 2.637863 4.396356
v 2.349529 1.486496 4.326867
v 2.897453 0.519577 4.194836
v 3.969993 0.161148 3.953205
v 5.022687 0.540588 3.673160
v 3.995012 1.893234 4.125370
v 6.760053 2.858643 2.922085
v 5.589204 2.520599 3.577004
vt 0.896040 0.346610
vt 0.748910 0.454530
vt 0.937910 0.507650
vt 0.745400 0.599060
vt 0.962290 0.645600
vt 0.937910 0.507650
vt 0.937910 0.507650
vt 0.748910 0.454530
vt 0.745400 0.599060
vt 0.668560 0.702900
vt 0.851930 0.799620
vt 0.926750 0.738000
vt 0.926750 0.738000
vt 0.745400 0.599060
vt 0.668560 0.702900
vt 0.851930 0.799620
vt 0.668560 0.702900
vt 0.719090 0.861360
vt 0.477460 0.734190
vt 0.568390 0.881750
vt 0.719090 0.861360
vt 0.719090 0.861360
vt 0.668560 0.702900
vt 0.477460 0.734190
vt 0.568390 0.881750
vt 0.477460 0.734190
vt 0.389270 0.880770
vt 0.284170 0.693000
vt 0.232270 0.847730
vt 0.389270 0.880770
vt 0.389270 0.880770
vt 0.477460 0.734190
vt 0.284170 0.693000
vt 0.232270 0.847730
vt 0.284170 0.693000
vt 0.103110 0.780810
vt 0.203340 0.623430
vt 0.037570 0.701350
vt 0.103110 0.780810
vt 0.103110 0.780810
vt 0.284170 0.693000
vt 0.203340 0.623430
vt 0.217500 0.443440
vt 0.040960 0.495820
vt 0.037570 0.701350
vt 0.037570 0.701350
vt 0.203340 0.623430
vt 0.217500 0.443440
vt 0.040960 0.495820
vt 0.217500 0.443440
vt 0.078800 0.327660
vt 0.303790 0.291370
vt 0.143630 0.213290
vt 0.078800 0.327660
vt 0.078800 0.327660
vt 0.217500 0.443440
vt 0.303790 0.291370
vt 0.143630 0.213290
vt 0.303790 0.291370
vt 0.253830 0.120660
vt 0.475050 0.232720
vt 0.396210 0.072220
vt 0.253830 0.120660
vt 0.253830 0.120660
vt 0.303790 0.291370
vt 0.475050 0.232720
vt 0.396210 0.072220
vt 0.475050 0.232720
vt 0.554150 0.072010
vt 0.648700 0.288540
vt 0.699670 0.120120
vt 0.554150 0.072010
vt 0.554150 0.072010
vt 0.475050 0.232720
vt 0.648700 0.288540
vt 0.699670 0.120120
vt 0.648700 0.288540
vt 0.808830 0.203550
vt 0.748910 0.454530
vt 0.896040 0.346610
vt 0.808830 0.203550
vt 0.808830 0.203550
vt 0.648700 0.288540
vt 0.748910 0.454530
vt 0.748910 0.454530
vt 0.477850 0.505200
vt 0.745400 0.599060
vt 0.745400 0.599060
vt 0.477850 0.505200
vt 0.668560 0.702900
vt 0.668560 0.702900
vt 0.477850 0.505200
vt 0.477460 0.734190
vt 0.477460 0.734190
vt 0.477850 0.505200
vt 0.284170 0.693000
vt 0.284170 0.693000
vt 0.477850 0.505200
vt 0.203340 0.623430
vt 0.203340 0.623430
vt 0.477850 0.505200
vt 0.217500 0.443440
vt 0.217500 0.443440
vt 0.477850 0.505200
vt 0.303790 0.291370
vt 0.303790 0.291370
vt 0.477850 0.505200
vt 0.475050 0.232720
vt 0.475050 0.232720
vt 0.477850 0.505200
vt 0.648700 0.288540
vt 0.648700 0.288540
vt 0.477850 0.505200
vt 0.748910 0.454530
vt 0.962290 0.645600
vt 0.745400 0.599060
vt 0.926750 0.738000
vt 0.896040 0.346610
vt 0.937910 0.507650
vt 0.748910 0.454530
vt 0.745400 0.599060
vt 0.962290 0.645600
vt 0.668560 0.702900
vt 0.926750 0.738000
vt 0.851930 0.799620
vt 0.719090 0.861360
vt 0.477460 0.734190
vt 0.568390 0.881750
vt 0.389270 0.880770
vt 0.284170 0.693000
vt 0.232270 0.847730
vt 0.103110 0.780810
vt 0.203340 0.623430
vt 0.037570 0.701350
vt 0.217500 0.443440
vt 0.040960 0.495820
vt 0.078800 0.327660
vt 0.303790 0.291370
vt 0.143630 0.213290
vt 0.253830 0.120660
vt 0.475050 0.232720
vt 0.396210 0.072220
vt 0.554150 0.072010
vt 0.648700 0.288540
vt 0.699670 0.120120
vt 0.808830 0.203550
vt 0.477850 0.505200
vn -0.512931 -0.103643 0.852150
vn -0.421617 -0.067990 0.904221
vn -0.515996 -0.066501 0.854006
vn -0.415942 -0.021699 0.909132
vn -0.495942 -0.040066 0.867431
vn -0.347311 0.050982 0.936363
vn -0.438378 0.072788 0.895838
vn -0.467847 0.026650 0.883408
vn -0.360868 0.121044 0.924729
vn -0.234289 0.068019 0.969784
vn -0.289231 0.130765 0.948286
vn -0.176030 0.138404 0.974607
vn -0.126430 0.046816 0.990870
vn -0.082839 0.120818 0.989212
vn 0.001933 0.074826 0.997195
vn -0.030830 -0.028146 0.999128
vn 0.068862 -0.018252 0.997459
vn -0.042443 -0.075829 0.996217
vn 0.078068 -0.061761 0.995033
vn 0.048328 -0.113784 0.992330
vn -0.109324 -0.130495 0.985403
vn 0.007337 -0.139978 0.990128
vn -0.092001 -0.196850 0.976108
vn -0.235426 -0.153175 0.959746
vn -0.169229 -0.208025 0.963373
vn -0.296486 -0.216986 0.930061
vn -0.361532 -0.121830 0.924366
vn -0.384051 -0.198542 0.901713
vn -0.467560 -0.144760 0.872028
vn -0.237072 -0.046318 0.970387
vn 0.513629 -0.104914 0.851574
vn 0.516789 -0.067773 0.853426
vn 0.422445 -0.069031 0.903756
vn 0.416888 -0.022723 0.908674
vn 0.496810 -0.041286 0.866877
vn 0.348457 0.050133 0.935983
vn 0.468890 0.025506 0.882888
vn 0.439544 0.071721 0.895353
vn 0.362172 0.120165 0.924333
vn 0.235498 0.067447 0.969532
vn 0.290574 0.130062 0.947972
vn 0.177410 0.137976 0.974417
vn 0.127601 0.046506 0.990735
vn 0.084190 0.120612 0.989123
vn -0.000690 0.074830 0.997196
vn 0.031824 -0.028222 0.999095
vn -0.067847 -0.018086 0.997532
vn 0.043317 -0.075937 0.996171
vn -0.077162 -0.061571 0.995116
vn -0.047552 -0.113665 0.992381
vn 0.110053 -0.130769 0.985286
vn -0.006626 -0.139960 0.990135
vn 0.092555 -0.197080 0.976009
vn 0.236081 -0.153762 0.959491
vn 0.169745 -0.208450 0.963190
vn 0.296959 -0.217730 0.929736
vn 0.362243 -0.122727 0.923969
vn 0.384546 -0.199498 0.901291
vn 0.468170 -0.145923 0.871506
vn 0.238002 -0.046903 0.970132
s 1
g lens
usemtl blinn3SG
f 1/1/1 3/2/2 2/3/3
f 5/4/4 4/5/5 2/6/3
f 2/7/3 3/8/2 5/9/4
f 8/10/6 7/11/7 6/12/8
f 6/13/8 5/14/4 8/15/6
f 7/16/7 8/17/6 9/18/9
f 11/19/10 10/20/11 9/21/9
f 9/22/9 8/23/6 11/24/10
f 10/25/11 11/26/10 12/27/12
f 14/28/13 13/29/14 12/30/12
f 12/31/12 11/32/10 14/33/13
f 13/34/14 14/35/13 15/36/15
f 17/37/16 16/38/17 15/39/15
f 15/40/15 14/41/13 17/42/16
f 19/43/18 18/44/19 16/45/17
f 16/46/17 17/47/16 19/48/18
f 18/49/19 19/50/18 20/51/20
f 22/52/21 21/53/22 20/54/20
f 20/55/20 19/56/18 22/57/21
f 21/58/22 22/59/21 23/60/23
f 25/61/24 24/62/25 23/63/23
f 23/64/23 22/65/21 25/66/24
f 24/67/25 25/68/24 26/69/26
f 28/70/27 27/71/28 26/72/26
f 26/73/26 25/74/24 28/75/27
f 27/76/28 28/77/27 29/78/29
f 3/79/2 1/80/1 29/81/29
f 29/82/29 28/83/27 3/84/2
f 3/85/2 30/86/30 5/87/4
f 5/88/4 30/89/30 8/90/6
f 8/91/6 30/92/30 11/93/10
f 11/94/10 30/95/30 14/96/13
f 14/97/13 30/98/30 17/99/16
f 17/100/16 30/101/30 19/102/18
f 19/103/18 30/104/30 22/105/21
f 22/106/21 30/107/30 25/108/24
f 25/109/24 30/110/30 28/111/27
f 28/112/27 30/113/30 3/114/2
f 4/115/5 5/116/4 6/117/8
s 11
f 32/118/31 31/119/32 49/120/33
f 60/121/34 49/120/33 31/119/32
f 31/119/32 59/122/35 60/121/34
f 50/123/36 60/121/34 33/124/37
f 33/124/37 34/125/38 50/123/36
f 34/125/38 35/126/39 50/123/36
f 51/127/40 50/123/36 35/126/39
f 35/126/39 36/128/41 51/127/40
f 36/128/41 37/129/42 51/127/40
f 52/130/43 51/127/40 37/129/42
f 37/129/42 38/131/44 52/130/43
f 38/131/44 39/132/45 52/130/43
f 53/133/46 52/130/43 39/132/45
f 39/132/45 40/134/47 53/133/46
f 54/135/48 53/133/46 40/134/47
f 40/134/47 41/136/49 54/135/48
f 41/136/49 42/137/50 54/135/48
f 55/138/51 54/135/48 42/137/50
f 42/137/50 43/139/52 55/138/51
f 43/139/52 44/140/53 55/138/51
f 56/141/54 55/138/51 44/140/53
f 44/140/53 45/142/55 56/141/54
f 45/142/55 46/143/56 56/141/54
f 57/144/57 56/141/54 46/143/56
f 46/143/56 47/145/58 57/144/57
f 47/145/58 48/146/59 57/144/57
f 49/120/33 57/144/57 48/146/59
f 48/146/59 32/118/31 49/120/33
f 49/120/33 60/121/34 58/147/60
f 60/121/34 50/123/36 58/147/60
f 50/123/36 51/127/40 58/147/60
f 51/127/40 52/130/43 58/147/60
f 52/130/43 53/133/46 58/147/60
f 53/133/46 54/135/48 58/147/60
f 54/135/48 55/138/51 58/147/60
f 55/138/51 56/141/54 58/147/60
f 56/141/54 57/144/57 58/147/60
f 57/144/57 49/120/33 58/147/60
f 59/122/35 33/124/37 60/121/34
g default
v -7.134752 1.948114 3.085902
v -6.893544 0.839624 3.143063
v -6.345860 -0.181372 3.329431
v -5.628982 -0.801092 3.572995
v -4.670728 -1.164847 3.860535
v -3.611048 -1.185293 4.119131
v -2.630988 -0.860647 4.304514
v -1.843711 -0.213003 4.424527
v -1.373665 0.611215 4.497916
v -1.111776 1.765787 4.567222
v -1.083937 3.244394 4.642443
v -1.628427 3.908884 4.647934
v -2.537083 4.375070 4.579545
v -3.575399 4.605387 4.416102
v -4.718790 4.623789 4.135749
v -5.677632 4.497766 3.819654
v -6.555035 4.070551 3.453210
v -7.245546 2.986292 3.097117
v -6.607769 0.976557 3.276649
v -6.830344 1.992273 3.228954
v -6.768181 3.398859 3.332515
v -6.357299 3.774225 3.521543
v -5.591662 4.146448 3.832747
v -4.697969 4.264048 4.123775
v -3.606214 4.246439 4.391804
v -2.637221 4.031107 4.548718
v -1.826315 3.614267 4.618008
v -1.414144 3.110269 4.621226
v -1.438499 1.814279 4.554800
v -1.678761 0.754373 4.486016
v -2.088556 0.035349 4.414322
v -2.781021 -0.534384 4.299304
v -3.658922 -0.825064 4.127154
v -4.620567 -0.806540 3.892540
v -5.484625 -0.479345 3.639506
v -6.114750 0.063013 3.434448
v -6.953088 1.971582 2.694598
v -6.718697 0.863306 2.748706
v -6.186271 -0.157293 2.928661
v -5.488991 -0.776526 3.164839
v -4.556414 -1.139776 3.444170
v -3.524559 -1.159735 3.695844
v -2.569815 -0.834799 3.876756
v -1.802670 -0.187002 3.994499
v -1.344592 0.637277 4.067070
v -1.592738 3.934915 4.217486
v -2.478175 4.400919 4.151481
v -3.489647 4.630930 3.992662
v -4.603011 4.648859 3.719825
v -5.536134 4.522272 3.412023
v -6.389513 4.094477 3.054862
v -7.064083 3.009241 2.705750
v -6.440898 1.000452 2.878866
v -6.657225 2.015985 2.833859
v -6.598009 3.425897 2.936426
v -6.197257 3.798303 3.120956
v -5.452525 4.171015 3.424294
v -4.582760 4.289118 3.707668
v -3.519672 4.271952 3.968517
v -2.575732 4.056925 4.121016
v -1.785591 3.640268 4.187942
v -1.383944 3.136331 4.190436
v -1.407740 1.840311 4.124048
v -1.641892 0.780405 4.055673
v -2.041247 0.061289 3.984884
v -2.715982 -0.508597 3.872119
v -3.571179 -0.799536 3.704133
v -4.507580 -0.781439 3.475801
v -5.348522 -0.454718 3.229982
v -5.961493 0.087244 3.031191
v -1.073728 3.256662 4.439718
v -0.679125 3.356272 4.460324
v -0.845412 2.160135 4.394516
v -0.758443 2.282663 4.403836
v -0.674578 2.985086 4.441814
v -0.372852 3.402597 4.469562
v -0.370899 3.087320 4.453750
v -1.062122 3.270487 4.211303
v -1.089297 1.791880 4.136120
v -0.670880 3.370096 4.232054
v -0.834912 2.173929 4.166313
v -0.749112 2.296457 4.175585
v -0.666385 2.998911 4.213535
v -0.368799 3.416422 4.241200
v -0.366878 3.101175 4.225377
v -7.068365 3.553186 3.203697
v -6.946446 2.831293 3.228630
v -6.889501 3.579157 2.811367
v -6.773665 2.855554 2.833468
v -1.101251 1.778055 4.364536
v -7.215719 2.624079 3.090841
v -7.034214 2.647303 2.699505
v -7.412927 3.065821 1.790638
v -7.703958 3.066187 1.790793
v -7.391469 2.990290 3.037476
v -7.630041 3.016718 2.606015
v -7.349299 3.040796 2.202432
v -7.680550 3.041223 2.202522
v -7.227882 3.022760 2.498037
v -7.548168 3.000757 2.868025
v -7.498323 3.164179 -0.249972
v -7.746462 3.266413 -2.327564
v -7.509178 3.266107 -2.327594
v -7.762723 3.164484 -0.249746
v -7.413940 2.704035 1.773120
v -7.704971 2.704370 1.773275
v -7.392482 2.628473 3.019959
v -7.631065 2.654901 2.588507
v -7.350312 2.679010 2.184933
v -7.681563 2.679407 2.185014
v -7.228895 2.660944 2.480528
v -7.549191 2.638941 2.850517
v -7.499273 2.852960 -0.264944
v -7.747352 3.002863 -2.340111
v -7.510067 3.002558 -2.340170
v -7.763684 2.853296 -0.264708
v -7.494059 3.367853 -4.362706
v -7.704392 3.368677 -4.373254
v -7.705228 3.148188 -4.383667
v -7.494894 3.147211 -4.373117
v -7.449791 3.413721 -4.398004
v -7.743548 3.414820 -4.412746
v -7.744715 3.106897 -4.427285
v -7.450958 3.105493 -4.412558
v -7.510018 3.491785 -6.692210
v -7.701984 3.491876 -6.690895
v -7.702671 3.288782 -6.665244
v -7.510705 3.288507 -6.666617
v -7.490658 0.595438 -10.443720
v -7.744102 0.595529 -10.441961
v -7.744865 0.321909 -10.155495
v -7.491421 0.321573 -10.157275
v -7.515235 3.417993 -7.277830
v -7.700585 3.418054 -7.276558
v -7.701148 3.231928 -7.223508
v -7.515809 3.231653 -7.224809
v -7.492777 2.827707 -8.221872
v -7.729945 2.827799 -8.220123
v -7.730635 2.648264 -8.081897
v -7.493467 2.647898 -8.083669
v -7.507667 3.188181 -7.799992
v -7.711999 3.188242 -7.798452
v -7.712636 2.995462 -7.683422
v -7.508303 2.995188 -7.684965
v -7.492076 0.372873 -10.520509
v -7.745520 0.372934 -10.518703
v -7.745925 0.230905 -10.369981
v -7.492471 0.230600 -10.371692
v -7.490293 3.442102 -5.549164
v -7.712484 3.442591 -5.554196
v -7.713313 3.209772 -5.563970
v -7.491279 3.209101 -5.558946
v -0.066948 3.115549 4.457343
v -0.066572 3.414011 4.472348
v -0.067077 3.129373 4.228944
v -0.066701 3.427835 4.243949
v 6.996212 1.930780 3.078395
v 6.752359 0.822901 3.135815
v 6.202412 -0.196753 3.322765
v 5.484328 -0.814703 3.567092
v 4.525553 -1.176138 3.855650
v 3.466158 -1.193960 4.115373
v 2.487135 -0.866903 4.301795
v 1.701603 -0.217367 4.422644
v 1.233675 0.608042 4.496531
v 0.974707 1.763224 4.566114
v 0.950591 3.241892 4.641362
v 1.496716 3.905039 4.646275
v 2.406424 4.368997 4.576919
v 3.445091 4.596781 4.412373
v 4.588165 4.612375 4.130806
v 5.546289 4.484003 3.813692
v 6.422173 4.054651 3.446316
v 7.109566 2.968714 3.089492
v 6.467091 0.960535 3.269703
v 6.692097 1.975672 3.221770
v 6.633515 3.382410 3.325395
v 6.223798 3.758783 3.514860
v 5.459475 4.132898 3.826877
v 4.566447 4.252695 4.118853
v 3.474995 4.237741 4.388042
v 2.505679 4.024790 4.545986
v 1.693842 3.609934 4.616138
v 1.280441 3.106974 4.619794
v 1.301531 1.810923 4.553344
v 1.539105 0.750437 4.484306
v 1.947044 0.030405 4.412177
v 2.637961 -0.541037 4.296426
v 3.514926 -0.833853 4.123342
v 4.476312 -0.817709 3.887707
v 5.340846 -0.492621 3.633756
v 5.972034 0.048181 3.428027
v 6.814106 1.954706 2.687285
v 6.577066 0.847010 2.741643
v 6.042369 -0.172278 2.922166
v 5.343875 -0.789831 3.159085
v 4.410768 -1.150763 3.439406
v 3.379190 -1.168188 3.692177
v 2.425478 -0.840933 3.874103
v 1.660076 -0.191275 3.992660
v 1.204114 0.634165 4.065716
v 1.460540 3.931162 4.215865
v 2.347032 4.394998 4.148918
v 3.358861 4.622507 3.989025
v 4.471916 4.637720 3.715005
v 5.404330 4.508844 3.406212
v 6.256200 4.078974 3.048144
v 6.927659 2.992090 2.698318
v 6.299771 0.984827 2.872098
v 6.518531 1.999811 2.826861
v 6.462903 3.409876 2.929488
v 6.063303 3.783258 3.114443
v 5.319875 4.157801 3.418572
v 4.450767 4.278040 3.702870
v 3.387975 4.263498 3.964847
v 2.443706 4.050760 4.118351
v 1.652631 3.636026 4.186115
v 1.249753 3.133097 4.189037
v 1.270285 1.837046 4.122625
v 1.501749 0.776529 4.054003
v 1.899249 0.056467 3.982790
v 2.572438 -0.515097 3.869309
v 3.426704 -0.808111 3.700417
v 4.362854 -0.792303 3.471089
v 5.204280 -0.467657 3.224376
v 5.818322 0.072809 3.024933
v 0.940153 3.254190 4.438648
v 0.545822 3.354776 4.459674
v 0.709090 2.158213 4.393691
v 0.622433 2.280954 4.403103
v 0.540341 2.983621 4.441169
v 0.239675 3.401834 4.469237
v 0.236929 3.086588 4.453427
v 0.928289 3.268045 4.210246
v 0.951741 1.789377 4.135036
v 0.537318 3.368631 4.231413
v 0.698332 2.172068 4.165498
v 0.612845 2.294779 4.174862
v 0.531890 2.997446 4.212899
v 0.235364 3.415659 4.240879
v 0.232649 3.100412 4.225059
v 6.933912 3.536005 3.196260
v 6.810256 2.814417 3.221323
v 6.754610 3.562403 2.804119
v 6.637028 2.839105 2.826345
v 0.963953 1.775522 4.363439
v 7.078843 2.606562 3.083247
v 6.896894 2.630213 2.692105
v 7.275469 3.047815 1.782836
v 7.566500 3.047449 1.782681
v 7.255422 2.972315 3.029696
v 7.493505 2.998163 2.597982
v 7.212306 3.022943 2.194697
v 7.543557 3.022547 2.194436
v 7.091224 3.005182 2.490431
v 7.411929 2.982386 2.860078
v 7.358495 3.145960 -0.257863
v 7.604224 3.247583 -2.335718
v 7.366940 3.247858 -2.335495
v 7.622895 3.145624 -0.257918
v 7.275573 2.685999 1.765317
v 7.566603 2.685663 1.765163
v 7.255525 2.610498 3.012178
v 7.493619 2.636347 2.580473
v 7.212409 2.661127 2.177198
v 7.543661 2.660730 2.176927
v 7.091328 2.643366 2.472922
v 7.412043 2.620600 2.842570
v 7.358662 2.834741 -0.272836
v 7.604452 2.984033 -2.348266
v 7.367167 2.984339 -2.348073
v 7.623073 2.834406 -0.272881
v 7.349465 3.349665 -4.370591
v 7.559787 3.349970 -4.381362
v 7.560068 3.129480 -4.391775
v 7.349747 3.128992 -4.381002
v 7.305265 3.395624 -4.405841
v 7.599006 3.396021 -4.420896
v 7.599398 3.088068 -4.435436
v 7.305658 3.087396 -4.420396
v 7.362748 3.473566 -6.700110
v 7.554715 3.473139 -6.698999
v 7.554935 3.270075 -6.673349
v 7.362968 3.270288 -6.674517
v 7.331482 0.577249 -10.451593
v 7.584927 0.576731 -10.450104
v 7.585386 0.303110 -10.163638
v 7.331940 0.303415 -10.165148
v 7.367033 3.399744 -7.285735
v 7.552385 3.399347 -7.284660
v 7.552560 3.213220 -7.231610
v 7.367218 3.213404 -7.232715
v 7.341920 2.809519 -8.229752
v 7.579089 2.809000 -8.228255
v 7.579516 2.629495 -8.090030
v 7.342346 2.629709 -8.091550
v 7.358232 3.169962 -7.807889
v 7.562567 3.169504 -7.806565
v 7.562879 2.976725 -7.691537
v 7.358544 2.976938 -7.692862
v 7.332255 0.354685 -10.528383
v 7.585700 0.354135 -10.526847
v 7.585948 0.212107 -10.378125
v 7.332492 0.212412 -10.379567
v 7.344362 3.423914 -5.557044
v 7.566548 3.423853 -5.562312
v 7.566794 3.191034 -5.572087
v 7.344766 3.190912 -5.566827
vt 1.716770 0.909500
vt 1.723500 0.933670
vt 1.800580 0.903840
vt 1.787540 0.882100
vt 1.658060 0.923440
vt 1.673620 0.946020
vt 1.600110 0.857650
vt 1.576980 0.870670
vt 1.607370 0.916590
vt 1.623300 0.896100
vt 1.574890 0.795100
vt 1.549210 0.800700
vt 1.565080 0.727000
vt 1.538720 0.727950
vt 1.568070 0.646180
vt 1.542010 0.642830
vt 1.586290 0.576160
vt 1.561310 0.568280
vt 1.616610 0.516800
vt 1.594660 0.503910
vt 1.648250 0.482350
vt 1.636350 0.459810
vt 1.739670 0.475130
vt 1.743060 0.451470
vt 1.811800 0.500530
vt 1.824550 0.479950
vt 1.859130 0.535730
vt 1.878770 0.520070
vt 1.895730 0.588850
vt 1.919890 0.579650
vt 1.913830 0.653440
vt 1.939950 0.650990
vt 1.911230 0.724190
vt 1.937130 0.728460
vt 1.887950 0.788940
vt 1.911590 0.799930
vt 1.850470 0.838210
vt 1.869560 0.855470
vt 1.900620 0.255000
vt 1.904500 0.170700
vt 1.879930 0.172580
vt 1.876780 0.247440
vt 1.871690 0.111880
vt 1.896920 0.120600
vt 1.863070 0.059170
vt 1.812310 0.035830
vt 1.803770 0.060870
vt 1.844000 0.077140
vt 1.738630 0.022460
vt 1.737820 0.048950
vt 1.666380 0.024330
vt 1.667980 0.050730
vt 1.582940 0.030030
vt 1.585990 0.056360
vt 1.507760 0.045420
vt 1.514540 0.070910
vt 1.441060 0.077430
vt 1.455240 0.099180
vt 1.402660 0.128110
vt 1.427050 0.135730
vt 1.420360 0.236270
vt 1.442510 0.227800
vt 1.465270 0.312350
vt 1.482730 0.295520
vt 1.516790 0.358720
vt 1.528400 0.336260
vt 1.582930 0.390440
vt 1.588830 0.364910
vt 1.655830 0.404510
vt 1.656910 0.377890
vt 1.733280 0.401190
vt 1.729240 0.374830
vt 1.806050 0.377220
vt 1.795280 0.353210
vt 1.862270 0.332890
vt 1.843630 0.315140
vt 1.816240 0.933810
vt 1.734450 0.965880
vt 1.029980 0.917880
vt 1.064640 0.917880
vt 1.064640 0.842970
vt 1.029980 0.842970
vt 1.029980 0.978750
vt 1.064640 0.978750
vt 1.582190 0.938390
vt 1.547510 0.887640
vt 1.089960 0.575670
vt 1.124620 0.575670
vt 1.124620 0.533280
vt 1.089960 0.533280
vt 1.517050 0.811230
vt 1.089960 0.641650
vt 1.124620 0.641650
vt 1.504680 0.731490
vt 1.089960 0.710680
vt 1.124620 0.710680
vt 1.508060 0.639300
vt 1.089960 0.792410
vt 1.124620 0.792410
vt 1.529080 0.556830
vt 1.089960 0.865320
vt 1.124620 0.865320
vt 1.567200 0.484780
vt 1.089960 0.931520
vt 1.124620 0.931520
vt 1.628860 0.447010
vt 1.089960 0.978750
vt 1.124620 0.978750
vt 1.746230 0.435760
vt 1.029980 0.291140
vt 1.064640 0.291140
vt 1.064640 0.196890
vt 1.029980 0.196890
vt 1.840940 0.450430
vt 1.755730 0.418430
vt 1.029980 0.369950
vt 1.064640 0.369950
vt 1.903480 0.497060
vt 1.029980 0.430070
vt 1.064640 0.430070
vt 1.950760 0.566250
vt 1.029980 0.495600
vt 1.064640 0.495600
vt 1.973500 0.648430
vt 1.029980 0.563860
vt 1.064640 0.563860
vt 1.969760 0.736460
vt 1.029980 0.635770
vt 1.064640 0.635770
vt 1.940350 0.817310
vt 1.029980 0.705320
vt 1.064640 0.705320
vt 1.892060 0.880410
vt 1.029980 0.767250
vt 1.064640 0.767250
vt 1.367460 0.312140
vt 1.361360 0.303690
vt 1.287490 0.295740
vt 1.386210 0.340210
vt 1.316920 0.273070
vt 1.288600 0.267110
vt 1.310160 0.247160
vt 1.287680 0.245230
vt 1.308690 0.223220
vt 1.287280 0.223220
vt 1.389630 0.202230
vt 1.397460 0.210510
vt 1.375530 0.151250
vt 1.374000 0.123790
vt 1.352700 0.120790
vt 1.351510 0.143900
vt 1.331740 0.117630
vt 1.327920 0.139200
vt 1.373350 0.291120
vt 1.381870 0.300700
vt 1.401490 0.329170
vt 1.332310 0.262200
vt 1.269330 0.296270
vt 1.269860 0.267090
vt 1.269320 0.245290
vt 1.327590 0.243650
vt 1.268980 0.223220
vt 1.326700 0.223220
vt 1.641750 0.944910
vt 1.890840 0.094210
vt 1.616380 0.970640
vt 1.124620 0.489830
vt 1.089960 0.489830
vt 1.612120 0.435810
vt 1.684780 0.979610
vt 1.437750 0.962470
vt 1.435800 0.797390
vt 1.418380 0.797770
vt 1.422270 0.962060
vt 1.431960 0.432670
vt 1.407530 0.429560
vt 1.410540 0.464460
vt 1.432100 0.465340
vt 1.432580 0.401350
vt 1.433530 0.381380
vt 1.397890 0.377240
vt 1.402290 0.401450
vt 1.432500 0.365320
vt 1.430010 0.355220
vt 1.434220 0.629810
vt 1.414790 0.629820
vt 1.472630 0.797680
vt 1.455190 0.797320
vt 1.453980 0.962400
vt 1.469450 0.961950
vt 1.480680 0.464370
vt 1.483650 0.429440
vt 1.459220 0.432610
vt 1.459130 0.465270
vt 1.494750 0.375180
vt 1.457480 0.381560
vt 1.458510 0.401350
vt 1.488810 0.401240
vt 1.458630 0.365810
vt 1.462100 0.353630
vt 1.457120 0.629740
vt 1.476530 0.629760
vt 1.377410 0.401400
vt 1.355890 0.401400
vt 1.355890 0.565620
vt 1.377410 0.565620
vt 1.377410 0.898020
vt 1.355890 0.898020
vt 1.355890 0.931590
vt 1.377410 0.931590
vt 1.377410 0.957070
vt 1.355890 0.957070
vt 1.355890 0.978750
vt 1.377410 0.978750
vt 1.377410 0.733260
vt 1.355890 0.733260
vt 1.209550 0.388680
vt 1.206070 0.392890
vt 1.227540 0.394960
vt 1.224950 0.390160
vt 1.177550 0.978440
vt 1.180650 0.973950
vt 1.158060 0.974390
vt 1.161340 0.978750
vt 1.272290 0.977280
vt 1.274910 0.972480
vt 1.253430 0.974530
vt 1.256890 0.978750
vt 1.324820 0.978500
vt 1.331870 0.974200
vt 1.305310 0.974200
vt 1.308600 0.978750
vt 1.206060 0.484570
vt 1.227540 0.484570
vt 1.180650 0.882550
vt 1.156730 0.882550
vt 1.274910 0.882950
vt 1.253430 0.882950
vt 1.331870 0.880880
vt 1.305310 0.880880
vt 1.227540 0.574720
vt 1.206060 0.574720
vt 1.206060 0.621300
vt 1.227540 0.621300
vt 1.155440 0.792610
vt 1.180650 0.792610
vt 1.180650 0.746470
vt 1.154790 0.746470
vt 1.253430 0.795480
vt 1.274910 0.795480
vt 1.274910 0.751180
vt 1.253430 0.751180
vt 1.331870 0.789550
vt 1.331870 0.742950
vt 1.305310 0.742950
vt 1.305310 0.789550
vt 1.227540 0.946030
vt 1.227540 0.708010
vt 1.206060 0.708010
vt 1.206060 0.946030
vt 1.153600 0.661670
vt 1.180650 0.661670
vt 1.180650 0.421130
vt 1.150150 0.422490
vt 1.253430 0.436500
vt 1.253430 0.670810
vt 1.274910 0.670810
vt 1.274910 0.436500
vt 1.305310 0.415100
vt 1.305310 0.657290
vt 1.331870 0.657290
vt 1.331870 0.415100
vt 1.227540 0.665750
vt 1.206060 0.665750
vt 1.154200 0.703540
vt 1.180650 0.703540
vt 1.253430 0.711030
vt 1.274910 0.711030
vt 1.305310 0.699580
vt 1.331870 0.699580
vt 1.227540 0.963160
vt 1.206060 0.963160
vt 1.206060 0.978750
vt 1.227540 0.978750
vt 1.173900 0.405020
vt 1.158020 0.405730
vt 1.274910 0.418330
vt 1.253430 0.418330
vt 1.328830 0.398660
vt 1.313000 0.398660
vt 0.716770 0.909500
vt 0.787540 0.882100
vt 0.800580 0.903840
vt 0.723500 0.933670
vt 0.673620 0.946020
vt 0.658060 0.923440
vt 0.600110 0.857650
vt 0.623300 0.896100
vt 0.607370 0.916590
vt 0.576980 0.870670
vt 0.574890 0.795100
vt 0.549210 0.800700
vt 0.565080 0.727000
vt 0.538720 0.727950
vt 0.568070 0.646180
vt 0.542010 0.642830
vt 0.586290 0.576160
vt 0.561310 0.568280
vt 0.616610 0.516800
vt 0.594660 0.503910
vt 0.648250 0.482350
vt 0.636350 0.459810
vt 0.739670 0.475130
vt 0.743060 0.451470
vt 0.811800 0.500530
vt 0.824550 0.479950
vt 0.859130 0.535730
vt 0.878770 0.520070
vt 0.895730 0.588850
vt 0.919890 0.579650
vt 0.913830 0.653440
vt 0.939950 0.650990
vt 0.911230 0.724190
vt 0.937130 0.728460
vt 0.887950 0.788940
vt 0.911590 0.799930
vt 0.850470 0.838210
vt 0.869560 0.855470
vt 0.900620 0.255000
vt 0.876780 0.247440
vt 0.879930 0.172580
vt 0.904500 0.170700
vt 0.871690 0.111880
vt 0.896920 0.120600
vt 0.863070 0.059170
vt 0.844000 0.077140
vt 0.803770 0.060870
vt 0.812310 0.035830
vt 0.737820 0.048950
vt 0.738630 0.022460
vt 0.667980 0.050730
vt 0.666380 0.024330
vt 0.585990 0.056360
vt 0.582940 0.030030
vt 0.514540 0.070910
vt 0.507760 0.045420
vt 0.455240 0.099180
vt 0.441060 0.077430
vt 0.427050 0.135730
vt 0.402660 0.128110
vt 0.442510 0.227800
vt 0.420360 0.236270
vt 0.482730 0.295520
vt 0.465270 0.312350
vt 0.528400 0.336260
vt 0.516790 0.358720
vt 0.588830 0.364910
vt 0.582930 0.390440
vt 0.656910 0.377890
vt 0.655830 0.404510
vt 0.729240 0.374830
vt 0.733280 0.401190
vt 0.795280 0.353210
vt 0.806050 0.377220
vt 0.843630 0.315140
vt 0.862270 0.332890
vt 0.816240 0.933810
vt 0.734450 0.965880
vt 0.029980 0.917880
vt 0.029980 0.842970
vt 0.064640 0.842970
vt 0.064640 0.917880
vt 0.029980 0.978750
vt 0.064640 0.978750
vt 0.582190 0.938390
vt 0.547510 0.887640
vt 0.089960 0.575670
vt 0.089960 0.533280
vt 0.124620 0.533280
vt 0.124620 0.575670
vt 0.517050 0.811230
vt 0.089960 0.641650
vt 0.124620 0.641650
vt 0.504680 0.731490
vt 0.089960 0.710680
vt 0.124620 0.710680
vt 0.508060 0.639300
vt 0.089960 0.792410
vt 0.124620 0.792410
vt 0.529080 0.556830
vt 0.089960 0.865320
vt 0.124620 0.865320
vt 0.567200 0.484780
vt 0.089960 0.931520
vt 0.124620 0.931520
vt 0.628860 0.447010
vt 0.089960 0.978750
vt 0.124620 0.978750
vt 0.746230 0.435760
vt 0.029980 0.291140
vt 0.029980 0.196890
vt 0.064640 0.196890
vt 0.064640 0.291140
vt 0.755730 0.418430
vt 0.840940 0.450430
vt 0.029980 0.369950
vt 0.064640 0.369950
vt 0.903480 0.497060
vt 0.029980 0.430070
vt 0.064640 0.430070
vt 0.950760 0.566250
vt 0.029980 0.495600
vt 0.064640 0.495600
vt 0.973500 0.648430
vt 0.029980 0.563860
vt 0.064640 0.563860
vt 0.969760 0.736460
vt 0.029980 0.635770
vt 0.064640 0.635770
vt 0.940350 0.817310
vt 0.029980 0.705320
vt 0.064640 0.705320
vt 0.892060 0.880410
vt 0.029980 0.767250
vt 0.064640 0.767250
vt 0.367460 0.312140
vt 0.386210 0.340210
vt 0.287490 0.295740
vt 0.361360 0.303690
vt 0.316920 0.273070
vt 0.288600 0.267110
vt 0.310160 0.247160
vt 0.287680 0.245230
vt 0.308690 0.223220
vt 0.287280 0.223220
vt 0.397460 0.210510
vt 0.389630 0.202230
vt 0.375530 0.151250
vt 0.374000 0.123790
vt 0.351510 0.143900
vt 0.352700 0.120790
vt 0.327920 0.139200
vt 0.331740 0.117630
vt 0.373350 0.291120
vt 0.381870 0.300700
vt 0.401490 0.329170
vt 0.332310 0.262200
vt 0.269330 0.296270
vt 0.269860 0.267090
vt 0.269320 0.245290
vt 0.327590 0.243650
vt 0.268980 0.223220
vt 0.326700 0.223220
vt 0.641750 0.944910
vt 0.890840 0.094210
vt 0.616380 0.970640
vt 0.124620 0.489830
vt 0.089960 0.489830
vt 0.612120 0.435810
vt 0.684780 0.979610
vt 0.437750 0.962470
vt 0.422270 0.962060
vt 0.418380 0.797770
vt 0.435800 0.797390
vt 0.431960 0.432670
vt 0.432100 0.465340
vt 0.410540 0.464460
vt 0.407530 0.429560
vt 0.432580 0.401350
vt 0.402290 0.401450
vt 0.397890 0.377240
vt 0.433530 0.381380
vt 0.430010 0.355220
vt 0.432500 0.365320
vt 0.434220 0.629810
vt 0.414790 0.629820
vt 0.472630 0.797680
vt 0.469450 0.961950
vt 0.453980 0.962400
vt 0.455190 0.797320
vt 0.480680 0.464370
vt 0.459130 0.465270
vt 0.459220 0.432610
vt 0.483650 0.429440
vt 0.494750 0.375180
vt 0.488810 0.401240
vt 0.458510 0.401350
vt 0.457480 0.381560
vt 0.458630 0.365810
vt 0.462100 0.353630
vt 0.476530 0.629760
vt 0.457120 0.629740
vt 0.377410 0.401400
vt 0.377410 0.565620
vt 0.355890 0.565620
vt 0.355890 0.401400
vt 0.377410 0.898020
vt 0.377410 0.931590
vt 0.355890 0.931590
vt 0.355890 0.898020
vt 0.377410 0.957070
vt 0.377410 0.978750
vt 0.355890 0.978750
vt 0.355890 0.957070
vt 0.377410 0.733260
vt 0.355890 0.733260
vt 0.209550 0.388680
vt 0.224950 0.390160
vt 0.227540 0.394960
vt 0.206070 0.392890
vt 0.177550 0.978440
vt 0.161340 0.978750
vt 0.158060 0.974390
vt 0.180650 0.973950
vt 0.272290 0.977280
vt 0.256890 0.978750
vt 0.253430 0.974530
vt 0.274910 0.972480
vt 0.324820 0.978500
vt 0.308600 0.978750
vt 0.305310 0.974200
vt 0.331870 0.974200
vt 0.227540 0.484570
vt 0.206060 0.484570
vt 0.156730 0.882550
vt 0.180650 0.882550
vt 0.253430 0.882950
vt 0.274910 0.882950
vt 0.305310 0.880880
vt 0.331870 0.880880
vt 0.227540 0.574720
vt 0.227540 0.621300
vt 0.206060 0.621300
vt 0.206060 0.574720
vt 0.155440 0.792610
vt 0.154790 0.746470
vt 0.180650 0.746470
vt 0.180650 0.792610
vt 0.253430 0.795480
vt 0.253430 0.751180
vt 0.274910 0.751180
vt 0.274910 0.795480
vt 0.331870 0.789550
vt 0.305310 0.789550
vt 0.305310 0.742950
vt 0.331870 0.742950
vt 0.227540 0.946030
vt 0.206060 0.946030
vt 0.206060 0.708010
vt 0.227540 0.708010
vt 0.153600 0.661670
vt 0.150150 0.422490
vt 0.180650 0.421130
vt 0.180650 0.661670
vt 0.253430 0.436500
vt 0.274910 0.436500
vt 0.274910 0.670810
vt 0.253430 0.670810
vt 0.305310 0.415100
vt 0.331870 0.415100
vt 0.331870 0.657290
vt 0.305310 0.657290
vt 0.227540 0.665750
vt 0.206060 0.665750
vt 0.154200 0.703540
vt 0.180650 0.703540
vt 0.253430 0.711030
vt 0.274910 0.711030
vt 0.305310 0.699580
vt 0.331870 0.699580
vt 0.227540 0.963160
vt 0.227540 0.978750
vt 0.206060 0.978750
vt 0.206060 0.963160
vt 0.158020 0.405730
vt 0.173900 0.405020
vt 0.253430 0.418330
vt 0.274910 0.418330
vt 0.313000 0.398660
vt 0.328830 0.398660
vn 0.423620 0.102613 0.900009
vn -0.957733 -0.164344 0.236090
vn -0.926539 -0.319156 0.199160
vn 0.361991 0.233588 0.902441
vn 0.494702 -0.084175 0.864977
vn -0.834162 -0.255573 0.488730
vn 0.082218 -0.644206 0.760420
vn -0.626936 0.664809 0.406178
vn -0.851667 0.468504 0.234877
vn 0.278227 -0.440309 0.853650
vn -0.046365 -0.719796 0.692635
vn -0.416307 0.735271 0.534851
vn -0.140128 -0.768950 0.623763
vn -0.216305 0.743653 0.632608
vn -0.215270 -0.759564 0.613776
vn -0.049177 0.744775 0.665501
vn -0.334491 -0.717762 0.610683
vn 0.176879 0.716345 0.674955
vn -0.489442 -0.601280 0.631592
vn 0.443357 0.611492 0.655372
vn -0.703045 -0.178250 0.688444
vn 0.568548 0.106019 0.815790
vn -0.788299 0.052102 0.613083
vn 0.518339 -0.104860 0.848722
vn -0.748300 0.223282 0.624654
vn 0.720339 -0.318527 0.616159
vn -0.617813 0.432100 0.656960
vn 0.574963 -0.566519 0.590316
vn -0.443447 0.581843 0.681773
vn 0.311235 -0.743571 0.591807
vn -0.254849 0.659115 0.707545
vn 0.005019 -0.824378 0.566018
vn -0.077292 0.659748 0.747502
vn -0.284900 -0.819484 0.497271
vn 0.092538 0.589607 0.802371
vn -0.551986 -0.736098 0.391753
vn 0.257428 0.419927 0.870283
vn -0.794664 -0.545198 0.266963
vn -0.469776 -0.260845 -0.843369
vn -0.437785 -0.101379 -0.893346
vn 0.950533 0.164260 -0.263639
vn 0.900355 0.290693 -0.323818
vn 0.978421 -0.025716 -0.205017
vn -0.075388 -0.281266 -0.956664
vn -0.424561 0.505183 -0.751358
vn -0.207007 0.718810 -0.663672
vn 0.613614 -0.582181 -0.533426
vn 0.830101 -0.382583 -0.405663
vn -0.038726 0.811703 -0.582785
vn 0.431451 -0.661609 -0.613289
vn 0.110642 0.828453 -0.549020
vn 0.226037 -0.717938 -0.658386
vn 0.200986 0.831487 -0.517913
vn 0.064689 -0.711650 -0.699550
vn 0.349824 0.796120 -0.493777
vn -0.146660 -0.664309 -0.732929
vn 0.552879 0.679470 -0.482333
vn -0.371998 -0.541710 -0.753769
vn 0.194187 0.296567 -0.935061
vn -0.628208 -0.104566 -0.770987
vn 0.450941 -0.085319 -0.888466
vn -0.718934 0.117843 -0.685016
vn 0.821781 -0.262078 -0.505955
vn -0.662454 0.289857 -0.690752
vn 0.688933 -0.512071 -0.512986
vn -0.495864 0.512092 -0.701342
vn 0.479874 -0.694589 -0.535973
vn -0.253034 0.674694 -0.693370
vn 0.240419 -0.778511 -0.579758
vn 0.029463 0.758189 -0.651369
vn 0.016720 -0.770067 -0.637744
vn 0.304383 0.751547 -0.585258
vn -0.188726 -0.677499 -0.710899
vn 0.554087 0.666603 -0.498625
vn -0.386661 -0.485666 -0.783979
vn 0.776839 0.481905 -0.405326
vn 0.788296 0.446960 0.422867
vn 0.961863 -0.202944 0.183392
vn 0.142373 -0.173044 0.974569
vn 0.556575 -0.161154 0.815017
vn 0.267310 -0.190869 0.944518
vn -0.141289 0.505756 0.851028
vn 0.101861 -0.574351 0.812247
vn -0.068852 0.559049 0.826271
vn -0.000321 -0.614141 0.789197
vn 0.001151 0.569071 0.822288
vn 0.622104 -0.083067 -0.778515
vn 0.226360 -0.076349 -0.971047
vn 0.338065 -0.098447 -0.935959
vn -0.092361 0.600324 -0.794406
vn -0.047410 0.651565 -0.757110
vn 0.129871 -0.492005 -0.860851
vn 0.000436 0.661288 -0.750133
vn -0.001106 -0.533375 -0.845878
vn -0.806476 0.301650 0.508531
vn -0.029844 0.504525 -0.862881
vn -0.738424 0.671272 0.064219
vn -0.745781 0.665812 0.022491
vn 0.741254 0.670367 0.033912
vn 0.711765 0.696929 0.087642
vn -0.748585 0.654259 0.107540
vn 0.658185 0.742084 -0.126897
vn 0.775574 0.631068 -0.015425
vn -0.773821 0.630781 0.057596
vn -0.689046 0.702032 0.179909
vn -0.552684 0.755499 0.351799
vn 0.563725 0.780518 -0.270197
vn -0.402438 0.704503 0.584568
vn -0.766757 0.640735 0.039273
vn 0.758726 0.651264 0.013768
vn 0.742238 -0.668477 -0.047140
vn -0.744565 -0.665014 -0.058132
vn -0.732774 -0.680264 -0.016867
vn 0.721468 -0.692438 0.003723
vn 0.774852 -0.625493 -0.091453
vn 0.653120 -0.726051 -0.215138
vn -0.752155 -0.658379 0.028279
vn -0.773078 -0.634024 -0.019100
vn -0.543170 -0.801098 0.251412
vn -0.683532 -0.724103 0.091975
vn 0.544760 -0.752394 -0.370322
vn -0.391251 -0.775963 0.494777
vn -0.765355 -0.642453 -0.038543
vn 0.759862 -0.646835 -0.064918
vn 0.727158 0.686101 0.022490
vn -0.707541 0.706160 0.026893
vn -0.718110 -0.693860 -0.053633
vn 0.736373 -0.674268 -0.055831
vn 0.714947 0.699166 0.004227
vn -0.714733 0.699321 0.010354
vn -0.735329 -0.674207 -0.068821
vn 0.723427 -0.686262 -0.075488
vn -0.695147 0.718738 -0.013650
vn 0.703315 0.710605 -0.019711
vn 0.676198 0.710930 -0.193220
vn -0.679281 0.709092 -0.189119
vn -0.764018 -0.645030 -0.014592
vn -0.773663 -0.606994 0.181670
vn 0.758850 -0.650939 -0.020616
vn 0.751168 -0.633286 0.186269
vn -0.809357 0.404067 -0.426229
vn -0.679097 0.528103 -0.509837
vn 0.678630 0.526277 -0.512342
vn 0.813252 0.397913 -0.424601
vn -0.727852 -0.460591 0.508023
vn -0.845772 -0.363917 0.390173
vn 0.845180 -0.367223 0.388354
vn 0.728587 -0.462625 0.505113
vn -0.681439 0.628562 -0.374902
vn 0.703308 0.608991 -0.366727
vn -0.770493 -0.513867 0.377201
vn 0.761755 -0.525126 0.379437
vn -0.501695 -0.166951 -0.848781
vn 0.681603 -0.143446 -0.717524
vn 0.524115 -0.842943 -0.121455
vn -0.715366 -0.692335 -0.094460
vn -0.422370 0.103641 0.900479
vn -0.360443 0.234458 0.902834
vn 0.926001 -0.321443 0.197981
vn 0.957625 -0.166703 0.234870
vn 0.834113 -0.257641 0.487727
vn -0.493932 -0.082954 0.865534
vn -0.082975 -0.643991 0.760520
vn -0.278397 -0.439617 0.853951
vn 0.853099 0.466441 0.233784
vn 0.629033 0.663301 0.405399
vn 0.045333 -0.719898 0.692598
vn 0.418693 0.734298 0.534324
vn 0.138898 -0.769290 0.623619
vn 0.218810 0.743172 0.632312
vn 0.214078 -0.760130 0.613492
vn 0.051704 0.744700 0.665393
vn 0.333397 -0.718609 0.610285
vn -0.174400 0.716776 0.675142
vn 0.488660 -0.602522 0.631014
vn -0.441126 0.612530 0.655907
vn 0.703396 -0.179998 0.687630
vn -0.567368 0.107401 0.816430
vn 0.789169 0.050174 0.612123
vn -0.517647 -0.103582 0.849301
vn 0.749588 0.221469 0.623755
vn -0.720381 -0.316719 0.617042
vn 0.619613 0.430601 0.656249
vn -0.575667 -0.565057 0.591032
vn 0.445618 0.580791 0.681254
vn -0.312409 -0.742770 0.592193
vn 0.257221 0.658523 0.707238
vn -0.006444 -0.824351 0.566042
vn 0.079729 0.659576 0.747397
vn 0.283433 -0.820244 0.496855
vn -0.090248 0.589813 0.802481
vn 0.550618 -0.737476 0.391087
vn -0.255450 0.420535 0.870572
vn 0.793647 -0.547169 0.265952
vn 0.468194 -0.261973 -0.843899
vn -0.900036 0.292921 -0.322695
vn -0.950457 0.166600 -0.262442
vn 0.436544 -0.102441 -0.893832
vn -0.978743 -0.023318 -0.203762
vn 0.073687 -0.281447 -0.956743
vn 0.424969 0.504106 -0.751850
vn -0.831519 -0.380582 -0.404640
vn -0.615654 -0.580702 -0.532687
vn 0.208046 0.718279 -0.663921
vn -0.433752 -0.660588 -0.612766
vn 0.040086 0.811598 -0.582839
vn -0.228519 -0.717460 -0.658050
vn -0.109195 0.828746 -0.548869
vn -0.067167 -0.711539 -0.699429
vn -0.199508 0.832007 -0.517650
vn 0.144252 -0.664637 -0.733110
vn -0.348395 0.796998 -0.493371
vn 0.369846 -0.542593 -0.754192
vn -0.551764 0.680876 -0.481627
vn 0.627068 -0.106095 -0.771705
vn -0.194455 0.297057 -0.934850
vn 0.718413 0.116064 -0.685866
vn -0.452136 -0.084220 -0.887964
vn 0.662365 0.288212 -0.691524
vn -0.823048 -0.260090 -0.504922
vn 0.496318 0.510817 -0.701951
vn -0.690776 -0.510409 -0.512164
vn 0.253932 0.674042 -0.693675
vn -0.482163 -0.693458 -0.535383
vn -0.028304 0.758282 -0.651312
vn -0.242953 -0.777946 -0.579460
vn -0.303163 0.752353 -0.584857
vn -0.019289 -0.769995 -0.637758
vn -0.553028 0.667998 -0.497934
vn 0.186296 -0.677942 -0.711117
vn -0.776142 0.483848 -0.404345
vn 0.384615 -0.486575 -0.784421
vn -0.786673 0.448859 0.423877
vn -0.962124 -0.200578 0.184623
vn -0.141760 -0.172698 0.974720
vn -0.556063 -0.159774 0.815638
vn -0.266746 -0.190201 0.944812
vn 0.143435 0.505433 0.850861
vn -0.102398 -0.574089 0.812364
vn 0.071085 0.558895 0.826186
vn -0.227566 -0.075787 -0.970809
vn -0.623225 -0.081550 -0.777779
vn -0.339321 -0.097617 -0.935592
vn 0.092982 0.600094 -0.794507
vn -0.132014 -0.491748 -0.860672
vn 0.048180 0.651442 -0.757167
vn 0.807830 0.299702 0.507533
vn 0.030154 0.504456 -0.862911
vn 0.740150 0.669459 0.063268
vn -0.709987 0.698626 0.088546
vn -0.739532 0.672218 0.034866
vn 0.747440 0.663980 0.021540
vn 0.750325 0.652423 0.106571
vn 0.775427 0.628894 0.056618
vn -0.774051 0.632959 -0.014430
vn -0.656530 0.743692 -0.126061
vn 0.690966 0.700361 0.179053
vn -0.562142 0.781893 -0.269517
vn 0.554943 0.754151 0.351132
vn 0.404891 0.703521 0.584056
vn 0.768391 0.638835 0.038287
vn -0.757110 0.653121 0.014733
vn -0.743928 -0.666661 -0.046199
vn -0.723151 -0.690674 0.004654
vn 0.731121 -0.682017 -0.017773
vn 0.742821 -0.666877 -0.059098
vn -0.776483 -0.623611 -0.090465
vn 0.771513 -0.635896 -0.020087
vn 0.750581 -0.660215 0.027282
vn -0.655146 -0.724463 -0.214329
vn -0.547036 -0.751115 -0.369563
vn 0.681864 -0.725783 0.091104
vn 0.541492 -0.802448 0.250727
vn 0.389856 -0.776974 0.494290
vn -0.761548 -0.644945 -0.063952
vn 0.763733 -0.644320 -0.039528
vn 0.709311 0.704417 0.025986
vn -0.725469 0.687857 0.023429
vn 0.716358 -0.695596 -0.054558
vn -0.738102 -0.672451 -0.054904
vn 0.716457 0.697568 0.009417
vn -0.713217 0.700924 0.005126
vn 0.733588 -0.676003 -0.069771
vn -0.725199 -0.684490 -0.074571
vn 0.696920 0.717001 -0.014538
vn 0.680793 0.707420 -0.189945
vn -0.674676 0.712616 -0.192328
vn -0.701497 0.712424 -0.018813
vn 0.762345 -0.646984 -0.015555
vn 0.772378 -0.608912 0.180716
vn -0.760496 -0.649046 -0.019632
vn -0.752498 -0.631415 0.187245
vn 0.809820 0.402065 -0.427240
vn -0.812769 0.399951 -0.423610
vn -0.677914 0.527991 -0.511525
vn 0.679796 0.526395 -0.510672
vn 0.727279 -0.462444 0.507159
vn 0.845350 -0.366017 0.389122
vn -0.845596 -0.365129 0.389422
vn -0.729123 -0.460805 0.506003
vn 0.682567 0.626833 -0.375742
vn -0.702244 0.610750 -0.365840
vn 0.769687 -0.515785 0.376228
vn -0.762591 -0.523222 0.380386
vn 0.500336 -0.168152 -0.849346
vn 0.713566 -0.694059 -0.095420
vn -0.526338 -0.841659 -0.120743
vn -0.682742 -0.141807 -0.716766
s 1
g glasses
usemtl blinn2SG
f 80/148/61 61/149/62 62/150/63
f 62/150/63 79/151/64 80/148/61
f 61/149/62 80/148/61 147/152/65
f 147/152/65 151/153/66 61/149/62
f 82/154/67 77/155/68 146/156/69
f 146/156/69 81/157/70 82/154/67
f 83/158/71 76/159/72 77/155/68
f 77/155/68 82/154/67 83/158/71
f 84/160/73 75/161/74 76/159/72
f 76/159/72 83/158/71 84/160/73
f 85/162/75 74/163/76 75/161/74
f 75/161/74 84/160/73 85/162/75
f 86/164/77 73/165/78 74/163/76
f 74/163/76 85/162/75 86/164/77
f 87/166/79 72/167/80 73/165/78
f 73/165/78 86/164/77 87/166/79
f 88/168/81 71/169/82 72/167/80
f 72/167/80 87/166/79 88/168/81
f 89/170/83 70/171/84 71/169/82
f 71/169/82 88/168/81 89/170/83
f 90/172/85 69/173/86 70/171/84
f 70/171/84 89/170/83 90/172/85
f 91/174/87 68/175/88 69/173/86
f 69/173/86 90/172/85 91/174/87
f 92/176/89 67/177/90 68/175/88
f 68/175/88 91/174/87 92/176/89
f 93/178/91 66/179/92 67/177/90
f 67/177/90 92/176/89 93/178/91
f 94/180/93 65/181/94 66/179/92
f 66/179/92 93/178/91 94/180/93
f 95/182/95 64/183/96 65/181/94
f 65/181/94 94/180/93 95/182/95
f 96/184/97 63/185/98 64/183/96
f 64/183/96 95/182/95 96/184/97
f 79/151/64 62/150/63 63/185/98
f 63/185/98 96/184/97 79/151/64
f 98/186/99 97/187/100 114/188/101
f 114/188/101 113/189/102 98/186/99
f 149/190/103 114/188/101 97/187/100
f 97/187/100 152/191/104 149/190/103
f 148/192/105 111/193/106 116/194/107
f 116/194/107 115/195/108 148/192/105
f 111/193/106 110/196/109 117/197/110
f 117/197/110 116/194/107 111/193/106
f 110/196/109 109/198/111 118/199/112
f 118/199/112 117/197/110 110/196/109
f 109/198/111 108/200/113 119/201/114
f 119/201/114 118/199/112 109/198/111
f 108/200/113 107/202/115 120/203/116
f 120/203/116 119/201/114 108/200/113
f 107/202/115 106/204/117 121/205/118
f 121/205/118 120/203/116 107/202/115
f 106/204/117 138/206/119 122/207/120
f 122/207/120 121/205/118 106/204/117
f 138/206/119 139/208/121 123/209/122
f 123/209/122 122/207/120 138/206/119
f 139/208/121 105/210/123 124/211/124
f 124/211/124 123/209/122 139/208/121
f 105/210/123 104/212/125 125/213/126
f 125/213/126 124/211/124 105/210/123
f 104/212/125 103/214/127 126/215/128
f 126/215/128 125/213/126 104/212/125
f 103/214/127 102/216/129 127/217/130
f 127/217/130 126/215/128 103/214/127
f 102/216/129 101/218/131 128/219/132
f 128/219/132 127/217/130 102/216/129
f 101/218/131 100/220/133 129/221/134
f 129/221/134 128/219/132 101/218/131
f 100/220/133 99/222/135 130/223/136
f 130/223/136 129/221/134 100/220/133
f 99/222/135 98/186/99 113/189/102
f 113/189/102 130/223/136 99/222/135
f 98/224/99 62/150/63 61/149/62
f 61/149/62 97/225/100 98/224/99
f 114/226/101 80/227/61 79/228/64
f 79/228/64 113/229/102 114/226/101
f 149/230/103 147/231/65 80/227/61
f 80/227/61 114/226/101 149/230/103
f 148/232/105 146/156/69 77/155/68
f 77/155/68 111/233/106 148/232/105
f 116/234/107 82/235/67 81/236/70
f 81/236/70 115/237/108 116/234/107
f 111/233/106 77/155/68 76/159/72
f 76/159/72 110/238/109 111/233/106
f 117/239/110 83/240/71 82/235/67
f 82/235/67 116/234/107 117/239/110
f 110/238/109 76/159/72 75/161/74
f 75/161/74 109/241/111 110/238/109
f 118/242/112 84/243/73 83/240/71
f 83/240/71 117/239/110 118/242/112
f 109/241/111 75/161/74 74/163/76
f 74/163/76 108/244/113 109/241/111
f 119/245/114 85/246/75 84/243/73
f 84/243/73 118/242/112 119/245/114
f 108/244/113 74/163/76 73/165/78
f 73/165/78 107/247/115 108/244/113
f 120/248/116 86/249/77 85/246/75
f 85/246/75 119/245/114 120/248/116
f 107/247/115 73/165/78 72/167/80
f 72/167/80 106/250/117 107/247/115
f 121/251/118 87/252/79 86/249/77
f 86/249/77 120/248/116 121/251/118
f 71/169/82 131/253/137 72/167/80
f 122/254/120 88/255/81 87/252/79
f 87/252/79 121/251/118 122/254/120
f 71/169/82 70/171/84 150/256/138
f 150/256/138 131/253/137 71/169/82
f 123/257/122 89/258/83 88/259/81
f 88/259/81 122/260/120 123/257/122
f 69/173/86 105/261/123 139/262/121
f 139/262/121 150/256/138 69/173/86
f 124/263/124 90/264/85 89/258/83
f 89/258/83 123/257/122 124/263/124
f 105/261/123 69/173/86 68/175/88
f 68/175/88 104/265/125 105/261/123
f 125/266/126 91/267/87 90/264/85
f 90/264/85 124/263/124 125/266/126
f 104/265/125 68/175/88 67/177/90
f 67/177/90 103/268/127 104/265/125
f 126/269/128 92/270/89 91/267/87
f 91/267/87 125/266/126 126/269/128
f 103/268/127 67/177/90 66/179/92
f 66/179/92 102/271/129 103/268/127
f 127/272/130 93/273/91 92/270/89
f 92/270/89 126/269/128 127/272/130
f 102/271/129 66/179/92 65/181/94
f 65/181/94 101/274/131 102/271/129
f 128/275/132 94/276/93 93/273/91
f 93/273/91 127/272/130 128/275/132
f 101/274/131 65/181/94 64/183/96
f 64/183/96 100/277/133 101/274/131
f 129/278/134 95/279/95 94/276/93
f 94/276/93 128/275/132 129/278/134
f 100/277/133 64/183/96 63/185/98
f 63/185/98 99/280/135 100/277/133
f 130/281/136 96/282/97 95/279/95
f 95/279/95 129/278/134 130/281/136
f 99/280/135 63/185/98 62/150/63
f 62/150/63 98/224/99 99/280/135
f 113/229/102 79/228/64 96/282/97
f 96/282/97 130/281/136 113/229/102
f 133/283/139 134/284/140 131/285/137
f 131/285/137 150/286/138 133/283/139
f 131/285/137 134/284/140 135/287/141
f 131/285/137 135/287/141 132/288/142
f 137/289/143 136/290/144 132/288/142
f 132/288/142 135/287/141 137/289/143
f 213/291/145 214/292/146 136/290/144
f 136/290/144 137/289/143 213/291/145
f 138/206/119 142/293/147 141/294/148
f 141/294/148 139/208/121 138/206/119
f 142/293/147 138/206/119 143/295/149
f 143/295/149 138/206/119 140/296/150
f 140/296/150 144/297/151 145/298/152
f 145/298/152 143/295/149 140/296/150
f 144/297/151 216/299/153 215/300/154
f 215/300/154 145/298/152 144/297/151
f 142/301/147 134/284/140 133/283/139
f 133/283/139 141/302/148 142/301/147
f 141/302/148 133/283/139 150/286/138
f 150/286/138 139/303/121 141/302/148
f 143/304/149 135/287/141 134/284/140
f 134/284/140 142/301/147 143/304/149
f 138/305/119 131/285/137 132/288/142
f 132/288/142 140/306/150 138/305/119
f 140/306/150 132/288/142 136/290/144
f 136/290/144 144/307/151 140/306/150
f 145/308/152 137/289/143 135/287/141
f 135/287/141 143/304/149 145/308/152
f 144/307/151 136/290/144 214/292/146
f 214/292/146 216/309/153 144/307/151
f 215/310/154 213/291/145 137/289/143
f 137/289/143 145/308/152 215/310/154
f 78/311/155 147/152/65 81/157/70
f 81/157/70 146/156/69 78/311/155
f 149/190/103 112/312/156 148/192/105
f 148/192/105 115/195/108 149/190/103
f 112/313/156 78/311/155 146/156/69
f 146/156/69 148/232/105 112/313/156
f 147/314/65 149/315/103 115/237/108
f 115/237/108 81/236/70 147/314/65
f 69/173/86 150/256/138 70/171/84
f 106/250/117 72/167/80 131/253/137
f 131/253/137 138/316/119 106/250/117
f 61/149/62 151/153/66 152/317/104
f 152/317/104 97/225/100 61/149/62
f 151/153/66 147/152/65 78/311/155
f 149/190/103 152/191/104 112/312/156
f 178/318/157 162/319/158 163/320/159
f 163/320/159 177/321/160 178/318/157
f 158/322/161 157/323/162 153/324/163
f 153/324/163 154/325/164 158/322/161
f 156/326/165 160/327/166 112/328/156
f 112/328/156 159/329/167 156/326/165
f 156/326/165 159/329/167 157/323/162
f 157/323/162 158/322/161 156/326/165
f 112/328/156 155/330/168 78/331/155
f 112/328/156 160/327/166 155/330/168
f 164/332/169 154/325/164 153/324/163
f 153/324/163 161/333/170 164/332/169
f 164/332/169 161/333/170 163/320/159
f 163/320/159 162/319/158 164/332/169
f 175/334/171 174/335/172 179/336/173
f 179/336/173 180/337/174 175/334/171
f 165/338/175 169/339/176 170/340/177
f 170/340/177 166/341/178 165/338/175
f 152/342/104 172/343/179 168/344/180
f 168/344/180 171/345/181 152/342/104
f 169/339/176 171/345/181 168/344/180
f 168/344/180 170/340/177 169/339/176
f 167/346/182 152/342/104 151/347/66
f 172/343/179 152/342/104 167/346/182
f 165/338/175 166/341/178 176/348/183
f 176/348/183 173/349/184 165/338/175
f 175/334/171 173/349/184 176/348/183
f 176/348/183 174/335/172 175/334/171
f 174/335/172 162/319/158 178/318/157
f 178/318/157 179/336/173 174/335/172
f 180/350/174 177/351/160 163/352/159
f 163/352/159 175/353/171 180/350/174
f 165/354/175 153/355/163 157/356/162
f 157/356/162 169/357/176 165/354/175
f 170/340/177 158/322/161 154/325/164
f 154/325/164 166/341/178 170/340/177
f 172/343/179 160/327/166 156/326/165
f 156/326/165 168/344/180 172/343/179
f 171/358/181 159/359/167 112/360/156
f 112/360/156 152/361/104 171/358/181
f 169/357/176 157/356/162 159/359/167
f 159/359/167 171/358/181 169/357/176
f 168/344/180 156/326/165 158/322/161
f 158/322/161 170/340/177 168/344/180
f 151/347/66 78/331/155 155/330/168
f 155/330/168 167/346/182 151/347/66
f 167/346/182 155/330/168 160/327/166
f 160/327/166 172/343/179 167/346/182
f 166/341/178 154/325/164 164/332/169
f 164/332/169 176/348/183 166/341/178
f 173/362/184 161/363/170 153/355/163
f 153/355/163 165/354/175 173/362/184
f 175/353/171 163/352/159 161/363/170
f 161/363/170 173/362/184 175/353/171
f 176/348/183 164/332/169 162/319/158
f 162/319/158 174/335/172 176/348/183
f 177/364/160 181/365/185 182/366/186
f 182/366/186 178/367/157 177/364/160
f 178/368/157 182/369/186 183/370/187
f 183/370/187 179/371/173 178/368/157
f 179/372/173 183/373/187 184/374/188
f 184/374/188 180/375/174 179/372/173
f 180/376/174 184/377/188 181/378/185
f 181/378/185 177/379/160 180/376/174
f 182/366/186 181/365/185 209/380/189
f 209/380/189 210/381/190 182/366/186
f 182/369/186 210/382/190 211/383/191
f 211/383/191 183/370/187 182/369/186
f 183/373/187 211/384/191 212/385/192
f 212/385/192 184/374/188 183/373/187
f 181/378/185 184/377/188 212/386/192
f 212/386/192 209/387/189 181/378/185
f 186/388/193 185/389/194 193/390/195
f 193/390/195 194/391/196 186/388/193
f 187/392/197 186/393/193 194/394/196
f 194/394/196 195/395/198 187/392/197
f 188/396/199 187/397/197 195/398/198
f 195/398/198 196/399/200 188/396/199
f 188/400/199 196/401/200 193/402/195
f 193/402/195 185/403/194 188/400/199
f 190/404/201 198/405/202 197/406/203
f 197/406/203 189/407/204 190/404/201
f 199/408/205 198/409/202 190/410/201
f 190/410/201 191/411/206 199/408/205
f 192/412/207 200/413/208 199/414/205
f 199/414/205 191/415/206 192/412/207
f 189/416/204 197/417/203 200/418/208
f 200/418/208 192/419/207 189/416/204
f 202/420/209 201/421/210 197/406/203
f 197/406/203 198/405/202 202/420/209
f 203/422/211 202/423/209 198/409/202
f 198/409/202 199/408/205 203/422/211
f 204/424/212 203/425/211 199/414/205
f 199/414/205 200/413/208 204/424/212
f 201/426/210 204/427/212 200/418/208
f 200/418/208 197/417/203 201/426/210
f 194/391/196 193/390/195 201/421/210
f 201/421/210 202/420/209 194/391/196
f 195/395/198 194/394/196 202/423/209
f 202/423/209 203/422/211 195/395/198
f 196/399/200 195/398/198 203/425/211
f 203/425/211 204/424/212 196/399/200
f 193/402/195 196/401/200 204/427/212
f 204/427/212 201/426/210 193/402/195
f 206/428/213 205/429/214 208/430/215
f 208/430/215 207/431/216 206/428/213
f 189/407/204 205/429/214 206/428/213
f 206/428/213 190/404/201 189/407/204
f 190/410/201 206/432/213 207/433/216
f 207/433/216 191/411/206 190/410/201
f 191/415/206 207/434/216 208/435/215
f 208/435/215 192/412/207 191/415/206
f 192/419/207 208/436/215 205/437/214
f 205/437/214 189/416/204 192/419/207
f 186/388/193 210/381/190 209/380/189
f 209/380/189 185/389/194 186/388/193
f 187/392/197 211/383/191 210/382/190
f 210/382/190 186/393/193 187/392/197
f 188/396/199 212/385/192 211/384/191
f 211/384/191 187/397/197 188/396/199
f 209/387/189 212/386/192 188/400/199
f 188/400/199 185/403/194 209/387/189
f 236/438/217 235/439/218 218/440/219
f 218/440/219 217/441/220 236/438/217
f 217/441/220 307/442/221 303/443/222
f 303/443/222 236/438/217 217/441/220
f 238/444/223 237/445/224 302/446/225
f 302/446/225 233/447/226 238/444/223
f 239/448/227 238/444/223 233/447/226
f 233/447/226 232/449/228 239/448/227
f 240/450/229 239/448/227 232/449/228
f 232/449/228 231/451/230 240/450/229
f 241/452/231 240/450/229 231/451/230
f 231/451/230 230/453/232 241/452/231
f 242/454/233 241/452/231 230/453/232
f 230/453/232 229/455/234 242/454/233
f 243/456/235 242/454/233 229/455/234
f 229/455/234 228/457/236 243/456/235
f 244/458/237 243/456/235 228/457/236
f 228/457/236 227/459/238 244/458/237
f 245/460/239 244/458/237 227/459/238
f 227/459/238 226/461/240 245/460/239
f 246/462/241 245/460/239 226/461/240
f 226/461/240 225/463/242 246/462/241
f 247/464/243 246/462/241 225/463/242
f 225/463/242 224/465/244 247/464/243
f 248/466/245 247/464/243 224/465/244
f 224/465/244 223/467/246 248/466/245
f 249/468/247 248/466/245 223/467/246
f 223/467/246 222/469/248 249/468/247
f 250/470/249 249/468/247 222/469/248
f 222/469/248 221/471/250 250/470/249
f 251/472/251 250/470/249 221/471/250
f 221/471/250 220/473/252 251/472/251
f 252/474/253 251/472/251 220/473/252
f 220/473/252 219/475/254 252/474/253
f 235/439/218 252/474/253 219/475/254
f 219/475/254 218/440/219 235/439/218
f 254/476/255 269/477/256 270/478/257
f 270/478/257 253/479/258 254/476/255
f 305/480/259 308/481/260 253/479/258
f 253/479/258 270/478/257 305/480/259
f 304/482/261 271/483/262 272/484/263
f 272/484/263 267/485/264 304/482/261
f 267/485/264 272/484/263 273/486/265
f 273/486/265 266/487/266 267/485/264
f 266/487/266 273/486/265 274/488/267
f 274/488/267 265/489/268 266/487/266
f 265/489/268 274/488/267 275/490/269
f 275/490/269 264/491/270 265/489/268
f 264/491/270 275/490/269 276/492/271
f 276/492/271 263/493/272 264/491/270
f 263/493/272 276/492/271 277/494/273
f 277/494/273 262/495/274 263/493/272
f 262/495/274 277/494/273 278/496/275
f 278/496/275 294/497/276 262/495/274
f 294/497/276 278/496/275 279/498/277
f 279/498/277 295/499/278 294/497/276
f 295/499/278 279/498/277 280/500/279
f 280/500/279 261/501/280 295/499/278
f 261/501/280 280/500/279 281/502/281
f 281/502/281 260/503/282 261/501/280
f 260/503/282 281/502/281 282/504/283
f 282/504/283 259/505/284 260/503/282
f 259/505/284 282/504/283 283/506/285
f 283/506/285 258/507/286 259/505/284
f 258/507/286 283/506/285 284/508/287
f 284/508/287 257/509/288 258/507/286
f 257/509/288 284/508/287 285/510/289
f 285/510/289 256/511/290 257/509/288
f 256/511/290 285/510/289 286/512/291
f 286/512/291 255/513/292 256/511/290
f 255/513/292 286/512/291 269/477/256
f 269/477/256 254/476/255 255/513/292
f 254/514/255 253/515/258 217/441/220
f 217/441/220 218/440/219 254/514/255
f 270/516/257 269/517/256 235/518/218
f 235/518/218 236/519/217 270/516/257
f 305/520/259 270/516/257 236/519/217
f 236/519/217 303/521/222 305/520/259
f 304/522/261 267/523/264 233/447/226
f 233/447/226 302/446/225 304/522/261
f 272/524/263 271/525/262 237/526/224
f 237/526/224 238/527/223 272/524/263
f 267/523/264 266/528/266 232/449/228
f 232/449/228 233/447/226 267/523/264
f 273/529/265 272/524/263 238/527/223
f 238/527/223 239/530/227 273/529/265
f 266/528/266 265/531/268 231/451/230
f 231/451/230 232/449/228 266/528/266
f 274/532/267 273/529/265 239/530/227
f 239/530/227 240/533/229 274/532/267
f 265/531/268 264/534/270 230/453/232
f 230/453/232 231/451/230 265/531/268
f 275/535/269 274/532/267 240/533/229
f 240/533/229 241/536/231 275/535/269
f 264/534/270 263/537/272 229/455/234
f 229/455/234 230/453/232 264/534/270
f 276/538/271 275/535/269 241/536/231
f 241/536/231 242/539/233 276/538/271
f 263/537/272 262/540/274 228/457/236
f 228/457/236 229/455/234 263/537/272
f 277/541/273 276/538/271 242/539/233
f 242/539/233 243/542/235 277/541/273
f 227/459/238 228/457/236 287/543/293
f 278/544/275 277/541/273 243/542/235
f 243/542/235 244/545/237 278/544/275
f 227/459/238 287/543/293 306/546/294
f 306/546/294 226/461/240 227/459/238
f 279/547/277 278/548/275 244/549/237
f 244/549/237 245/550/239 279/547/277
f 225/463/242 306/546/294 295/551/278
f 295/551/278 261/552/280 225/463/242
f 280/553/279 279/547/277 245/550/239
f 245/550/239 246/554/241 280/553/279
f 261/552/280 260/555/282 224/465/244
f 224/465/244 225/463/242 261/552/280
f 281/556/281 280/553/279 246/554/241
f 246/554/241 247/557/243 281/556/281
f 260/555/282 259/558/284 223/467/246
f 223/467/246 224/465/244 260/555/282
f 282/559/283 281/556/281 247/557/243
f 247/557/243 248/560/245 282/559/283
f 259/558/284 258/561/286 222/469/248
f 222/469/248 223/467/246 259/558/284
f 283/562/285 282/559/283 248/560/245
f 248/560/245 249/563/247 283/562/285
f 258/561/286 257/564/288 221/471/250
f 221/471/250 222/469/248 258/561/286
f 284/565/287 283/562/285 249/563/247
f 249/563/247 250/566/249 284/565/287
f 257/564/288 256/567/290 220/473/252
f 220/473/252 221/471/250 257/564/288
f 285/568/289 284/565/287 250/566/249
f 250/566/249 251/569/251 285/568/289
f 256/567/290 255/570/292 219/475/254
f 219/475/254 220/473/252 256/567/290
f 286/571/291 285/568/289 251/569/251
f 251/569/251 252/572/253 286/571/291
f 255/570/292 254/514/255 218/440/219
f 218/440/219 219/475/254 255/570/292
f 269/517/256 286/571/291 252/572/253
f 252/572/253 235/518/218 269/517/256
f 289/573/295 306/574/294 287/575/293
f 287/575/293 290/576/296 289/573/295
f 287/575/293 291/577/297 290/576/296
f 287/575/293 288/578/298 291/577/297
f 293/579/299 291/577/297 288/578/298
f 288/578/298 292/580/300 293/579/299
f 213/581/145 293/579/299 292/580/300
f 292/580/300 214/582/146 213/581/145
f 294/497/276 295/499/278 297/583/301
f 297/583/301 298/584/302 294/497/276
f 298/584/302 299/585/303 294/497/276
f 299/585/303 296/586/304 294/497/276
f 296/586/304 299/585/303 301/587/305
f 301/587/305 300/588/306 296/586/304
f 300/588/306 301/587/305 215/589/154
f 215/589/154 216/590/153 300/588/306
f 298/591/302 297/592/301 289/573/295
f 289/573/295 290/576/296 298/591/302
f 297/592/301 295/593/278 306/574/294
f 306/574/294 289/573/295 297/592/301
f 299/594/303 298/591/302 290/576/296
f 290/576/296 291/577/297 299/594/303
f 294/595/276 296/596/304 288/578/298
f 288/578/298 287/575/293 294/595/276
f 296/596/304 300/597/306 292/580/300
f 292/580/300 288/578/298 296/596/304
f 301/598/305 299/594/303 291/577/297
f 291/577/297 293/579/299 301/598/305
f 300/597/306 216/599/153 214/582/146
f 214/582/146 292/580/300 300/597/306
f 215/600/154 301/598/305 293/579/299
f 293/579/299 213/581/145 215/600/154
f 234/601/307 302/446/225 237/445/224
f 237/445/224 303/443/222 234/601/307
f 305/480/259 271/483/262 304/482/261
f 304/482/261 268/602/308 305/480/259
f 268/603/308 304/522/261 302/446/225
f 302/446/225 234/601/307 268/603/308
f 303/604/222 237/526/224 271/525/262
f 271/525/262 305/605/259 303/604/222
f 225/463/242 226/461/240 306/546/294
f 262/540/274 294/606/276 287/543/293
f 287/543/293 228/457/236 262/540/274
f 217/441/220 253/515/258 308/607/260
f 308/607/260 307/442/221 217/441/220
f 307/442/221 234/601/307 303/443/222
f 305/480/259 268/602/308 308/481/260
f 334/608/309 333/609/310 319/610/311
f 319/610/311 318/611/312 334/608/309
f 314/612/313 310/613/314 309/614/315
f 309/614/315 313/615/316 314/612/313
f 312/616/317 315/617/318 268/618/308
f 268/618/308 316/619/319 312/616/317
f 312/616/317 314/612/313 313/615/316
f 313/615/316 315/617/318 312/616/317
f 268/618/308 234/620/307 311/621/320
f 268/618/308 311/621/320 316/619/319
f 320/622/321 317/623/322 309/614/315
f 309/614/315 310/613/314 320/622/321
f 320/622/321 318/611/312 319/610/311
f 319/610/311 317/623/322 320/622/321
f 331/624/323 336/625/324 335/626/325
f 335/626/325 330/627/326 331/624/323
f 321/628/327 322/629/328 326/630/329
f 326/630/329 325/631/330 321/628/327
f 308/632/260 327/633/331 324/634/332
f 324/634/332 328/635/333 308/632/260
f 325/631/330 326/630/329 324/634/332
f 324/634/332 327/633/331 325/631/330
f 323/636/334 307/637/221 308/632/260
f 328/635/333 323/636/334 308/632/260
f 321/628/327 329/638/335 332/639/336
f 332/639/336 322/629/328 321/628/327
f 331/624/323 330/627/326 332/639/336
f 332/639/336 329/638/335 331/624/323
f 330/627/326 335/626/325 334/608/309
f 334/608/309 318/611/312 330/627/326
f 336/640/324 331/641/323 319/642/311
f 319/642/311 333/643/310 336/640/324
f 321/644/327 325/645/330 313/646/316
f 313/646/316 309/647/315 321/644/327
f 326/630/329 322/629/328 310/613/314
f 310/613/314 314/612/313 326/630/329
f 328/635/333 324/634/332 312/616/317
f 312/616/317 316/619/319 328/635/333
f 327/648/331 308/649/260 268/650/308
f 268/650/308 315/651/318 327/648/331
f 325/645/330 327/648/331 315/651/318
f 315/651/318 313/646/316 325/645/330
f 324/634/332 326/630/329 314/612/313
f 314/612/313 312/616/317 324/634/332
f 307/637/221 323/636/334 311/621/320
f 311/621/320 234/620/307 307/637/221
f 323/636/334 328/635/333 316/619/319
f 316/619/319 311/621/320 323/636/334
f 322/629/328 332/639/336 320/622/321
f 320/622/321 310/613/314 322/629/328
f 329/652/335 321/644/327 309/647/315
f 309/647/315 317/653/322 329/652/335
f 331/641/323 329/652/335 317/653/322
f 317/653/322 319/642/311 331/641/323
f 332/639/336 330/627/326 318/611/312
f 318/611/312 320/622/321 332/639/336
f 333/654/310 334/655/309 338/656/337
f 338/656/337 337/657/338 333/654/310
f 334/658/309 335/659/325 339/660/339
f 339/660/339 338/661/337 334/658/309
f 335/662/325 336/663/324 340/664/340
f 340/664/340 339/665/339 335/662/325
f 336/666/324 333/667/310 337/668/338
f 337/668/338 340/669/340 336/666/324
f 338/656/337 366/670/341 365/671/342
f 365/671/342 337/657/338 338/656/337
f 338/661/337 339/660/339 367/672/343
f 367/672/343 366/673/341 338/661/337
f 339/665/339 340/664/340 368/674/344
f 368/674/344 367/675/343 339/665/339
f 337/668/338 365/676/342 368/677/344
f 368/677/344 340/669/340 337/668/338
f 342/678/345 350/679/346 349/680/347
f 349/680/347 341/681/348 342/678/345
f 343/682/349 351/683/350 350/684/346
f 350/684/346 342/685/345 343/682/349
f 344/686/351 352/687/352 351/688/350
f 351/688/350 343/689/349 344/686/351
f 344/690/351 341/691/348 349/692/347
f 349/692/347 352/693/352 344/690/351
f 346/694/353 345/695/354 353/696/355
f 353/696/355 354/697/356 346/694/353
f 355/698/357 347/699/358 346/700/353
f 346/700/353 354/701/356 355/698/357
f 348/702/359 347/703/358 355/704/357
f 355/704/357 356/705/360 348/702/359
f 345/706/354 348/707/359 356/708/360
f 356/708/360 353/709/355 345/706/354
f 358/710/361 354/697/356 353/696/355
f 353/696/355 357/711/362 358/710/361
f 359/712/363 355/698/357 354/701/356
f 354/701/356 358/713/361 359/712/363
f 360/714/364 356/705/360 355/704/357
f 355/704/357 359/715/363 360/714/364
f 357/716/362 353/709/355 356/708/360
f 356/708/360 360/717/364 357/716/362
f 350/679/346 358/710/361 357/711/362
f 357/711/362 349/680/347 350/679/346
f 351/683/350 359/712/363 358/713/361
f 358/713/361 350/684/346 351/683/350
f 352/687/352 360/714/364 359/715/363
f 359/715/363 351/688/350 352/687/352
f 349/692/347 357/716/362 360/717/364
f 360/717/364 352/693/352 349/692/347
f 362/718/365 363/719/366 364/720/367
f 364/720/367 361/721/368 362/718/365
f 345/695/354 346/694/353 362/718/365
f 362/718/365 361/721/368 345/695/354
f 346/700/353 347/699/358 363/722/366
f 363/722/366 362/723/365 346/700/353
f 347/703/358 348/702/359 364/724/367
f 364/724/367 363/725/366 347/703/358
f 348/707/359 345/706/354 361/726/368
f 361/726/368 364/727/367 348/707/359
f 342/678/345 341/681/348 365/671/342
f 365/671/342 366/670/341 342/678/345
f 343/682/349 342/685/345 366/673/341
f 366/673/341 367/672/343 343/682/349
f 344/686/351 343/689/349 367/675/343
f 367/675/343 368/674/344 344/686/351
f 365/676/342 341/691/348 344/690/351
f 344/690/351 368/677/344 365/676/342
