newmtl Plane006SG
illum 4
Kd 0.34 0.41 0.37
Ka 0.00 0.00 0.00
Tf 0.00 0.00 0.00
Ni 1.00
Ks 0.26 0.26 0.26
Ns 1022.00
newmtl Plane021SG
illum 4
Kd 0.01 0.01 0.01
Ka 0.00 0.00 0.00
Tf 1.00 1.00 1.00
Ni 1.00
Ks 0.23 0.23 0.23
Ns 145.03
newmtl Plane021SG2
illum 4
Kd 0.01 0.01 0.01
Ka 0.00 0.00 0.00
Tf 1.00 1.00 1.00
Ni 1.00
Ks 0.23 0.23 0.23
Ns 145.03
newmtl Plane022SG
illum 4
Kd 0.01 0.01 0.01
Ka 0.00 0.00 0.00
Tf 1.00 1.00 1.00
Ni 1.00
Ks 0.82 0.82 0.82
Ns 254.00
newmtl Sphere013SG
illum 4
Kd 0.49 0.45 0.52
Ka 0.00 0.00 0.00
Tf 0.07 0.07 0.07
Ni 1.00
Ks 0.96 0.96 0.96
Ns 53.72
newmtl Sphere013SG2
illum 4
Kd 0.49 0.45 0.52
Ka 0.00 0.00 0.00
Tf 0.07 0.07 0.07
Ni 1.00
Ks 0.96 0.96 0.96
Ns 53.72
newmtl blinn1SG
illum 4
Kd 0.00 0.00 0.00
Ka 0.00 0.00 0.00
Tf 0.54 0.54 0.54
map_Kd 82893600_1_1530363534_w640.jpg
Ni 1.00
Ks 0.50 0.50 0.50
newmtl blinn1SG1
illum 4
Kd 0.00 0.00 0.00
Ka 0.00 0.00 0.00
Tf 1.00 1.00 1.00
map_Kd face_diffuse.png
bump  -bm 0.025 face_normal.png
Ni 1.00
Ks 0.50 0.50 0.50
Ns 0.06
newmtl blinn3SG
illum 4
Kd 0.50 0.50 0.50
Ka 0.00 0.00 0.00
Tf 1.00 1.00 1.00
Ni 1.00
Ks 0.50 0.50 0.50
newmtl initialShadingGroup
illum 4
Kd 0.50 0.50 0.50
Ka 0.00 0.00 0.00
Tf 1.00 1.00 1.00
Ni 1.00
newmtl initialShadingGroup1
illum 4
Kd 0.50 0.50 0.50
Ka 0.00 0.00 0.00
Tf 1.00 1.00 1.00
Ni 1.00
